<?xml version="1.0" encoding="UTF-8"?>
<svg id="Camada_1" data-name="Camada 1" xmlns="http://www.w3.org/2000/svg" viewBox="0 0 400 101.6">
  <defs>
    <style>
      .cls-1 {
        fill: #e3262e;
      }
    </style>
  </defs>
  <path class="cls-1" d="M4.8,10.69c11.04-.52,16.64,0,22.8,4.54,6.17,4.54,10.72,9.34,15.13,13.98,9.31,9.81,18.14,19.07,37.58,18.89,24.81-.24,36.58-11.64,46.96-21.71,9.54-9.25,17.79-17.24,35.27-17.16,15.34,.06,24.46,9.17,34.11,18.82,10.54,10.53,21.44,21.42,40.55,21.42,22.82,0,34.81-11.47,45.4-21.59,10.03-9.59,19.51-18.66,37.84-18.66,11.79,0,22.64,5.69,32.23,16.92,.33,.39,.59,.69,.78,.89,5.28,5.75,11.03,11.66,17.34,16.02,5.71,3.94,16.7,6.46,25.03,5.75,2.5-.21,4.36-2.42,4.14-4.92-.21-2.5-2.42-4.36-4.92-4.14-6.63,.56-15.55-1.74-19.09-4.18-5.57-3.84-10.89-9.33-15.81-14.68-.13-.15-.32-.37-.56-.65C348.17,6.9,335.01,.14,320.43,.14c-21.98,0-33.24,10.77-44.13,21.18-10.25,9.8-19.94,19.07-39.11,19.07-15.34,0-24.46-9.11-34.12-18.76C193.03,11.59,181.65,.22,162.57,.14c-21.17-.13-31.58,9.98-41.63,19.72-10.05,9.74-19.54,18.94-40.72,19.14-15.56,.17-21.96-6.65-30.89-16.06-4.46-4.7-9.51-10.03-16.33-15.05C23.94,1.24,15.42,1.09,4.37,1.61,1.86,1.72-.07,3.85,.04,6.36c.12,2.51,2.24,4.44,4.75,4.33Z"/>
  <path class="cls-1" d="M395.03,91.74c-6.63,.56-15.55-1.74-19.09-4.18-5.57-3.84-10.89-9.33-15.81-14.68-.13-.15-.32-.37-.56-.65-11.4-13.34-24.57-20.11-39.14-20.11-21.98,0-33.24,10.77-44.13,21.18-10.25,9.8-19.94,19.07-39.11,19.07-15.34,0-24.46-9.11-34.12-18.76-10.04-10.03-21.42-21.4-40.5-21.48-21.17-.13-31.58,9.98-41.63,19.72-10.05,9.74-19.54,18.94-40.72,19.14-15.56,.17-21.96-6.65-30.89-16.06-4.46-4.7-9.51-10.03-16.33-15.05-9.05-6.67-17.57-6.82-28.62-6.3-2.51,.12-4.45,2.25-4.33,4.75,.12,2.51,2.24,4.44,4.75,4.33,11.04-.52,16.64,0,22.8,4.54,6.17,4.54,10.72,9.34,15.13,13.98,9.31,9.81,18.14,19.07,37.58,18.89,24.81-.24,36.58-11.64,46.96-21.71,9.54-9.25,17.79-17.24,35.27-17.16,15.34,.06,24.46,9.17,34.11,18.82,10.54,10.53,21.44,21.42,40.55,21.42,22.82,0,34.81-11.47,45.4-21.59,10.03-9.59,19.51-18.66,37.84-18.66,11.79,0,22.64,5.69,32.23,16.92,.33,.39,.59,.69,.78,.89,5.28,5.75,11.03,11.66,17.34,16.02,5.71,3.94,16.7,6.46,25.03,5.75,2.5-.21,4.36-2.42,4.14-4.92-.21-2.5-2.42-4.36-4.92-4.14Z"/>
</svg>