<?xml version="1.0" encoding="UTF-8"?>
<svg id="Camada_1" data-name="Camada 1" xmlns="http://www.w3.org/2000/svg" viewBox="0 0 400 400">
  <defs>
    <style>
      .cls-1 {
        fill: #f5842b;
      }
    </style>
  </defs>
  <g>
    <path d="M395.48,212.37l-7.16-.3c.11-2.67,.17-5.38,.17-8.05,0-103.93-84.56-188.49-188.49-188.49S11.51,100.08,11.51,204.01c0,2.56,.05,5.15,.16,7.71l-7.16,.29c-.11-2.65-.16-5.34-.16-8C4.34,96.13,92.11,8.35,200,8.35s195.66,87.77,195.66,195.66c0,2.78-.06,5.59-.18,8.35Z"/>
    <path d="M200,399.67c-44.32,0-86.11-14.45-120.86-41.78l4.43-5.64c33.48,26.33,73.74,40.25,116.43,40.25s81.78-13.52,114.97-39.11l4.38,5.68c-34.46,26.56-75.73,40.61-119.35,40.61Z"/>
  </g>
  <g>
    <path class="cls-1" d="M63.62,166.75c50.17-38.87,74.06-73.64,74.06-109.82,0-11.17-3.82-16.4-11.59-16.4-10.88,0-15.69,8.06-14.98,41.84l-48.9-3.25C60.94,20.89,82,.25,127.36,.25c40.14,0,61.06,16.11,61.06,53.85,0,42.83-18.94,76.32-58.23,105.44l.42,1.84c7.35-.71,14.13-.99,22.61-.99h33.07v41.55H63.62v-35.19Z"/>
    <path class="cls-1" d="M333.65,59.9l-51.02,4.95c-.42-19.5-7.07-24.31-16.4-24.31-12.3,0-19.36,9.75-19.36,34.34v11.31c11.45-8.34,24.31-12.3,39.43-12.3,33.78,0,50.03,18.94,50.03,57.95v11.59c0,42.12-22.47,62.33-68.97,62.33s-71.23-27-71.23-82.82v-35.62C196.13,28.38,219.45,.11,267.93,.11c41.27,0,64.73,16.82,65.72,59.79Zm-82.68,71.94v11.45c0,16.11,5.65,21.91,17.39,21.91s17.53-5.79,17.53-21.91v-11.45c0-15.83-5.65-21.62-17.53-21.62s-17.39,5.79-17.39,21.62Z"/>
  </g>
  <g>
    <path class="cls-1" d="M62.79,262.28v10.69h-29.36v-50.37h28.71v10.68h-15.65v9.46h14.35v9.25h-14.35v10.29h16.3Z"/>
    <path class="cls-1" d="M65.54,222.6h14.43l8.02,20.76c1.12,2.84,2.09,5.83,3.2,10.04l.72-.11c-.47-5.54-.79-10.18-.79-14.25v-16.44h12.66v50.37h-14.46l-7.66-19.61c-1.44-3.99-2.34-6.76-3.53-11.69l-.76,.14c.47,5.07,.83,11.08,.83,15.87v15.29h-12.66v-50.37Z"/>
    <path class="cls-1" d="M106.79,252.35v-9.14c0-14.57,5.76-21.59,17.99-21.59s17.84,5.83,17.95,19.86l-12.45,1.76c0-8.71-1.69-11.37-5.25-11.37s-5.04,2.7-5.04,8.24v15.25c0,5.58,1.65,8.27,5.04,8.27s5.14-2.88,5.25-12.27l12.66,2.59c-.25,14.21-6.8,20-18.17,20-12.38,0-17.99-7.02-17.99-21.62Z"/>
    <path class="cls-1" d="M144.94,252.64v-9.14c0-15.29,6.08-21.87,18.71-21.87s18.71,6.58,18.71,21.87v9.14c0,14.93-6.12,21.33-18.71,21.33s-18.71-6.4-18.71-21.33Zm24.21,2.99v-15.15c0-5.76-1.8-8.53-5.5-8.53s-5.5,2.77-5.5,8.53v15.15c0,5.4,1.8,8.02,5.5,8.02s5.5-2.63,5.5-8.02Z"/>
    <path class="cls-1" d="M185.33,222.6h14.43l8.02,20.76c1.11,2.84,2.09,5.83,3.2,10.04l.72-.11c-.47-5.54-.79-10.18-.79-14.25v-16.44h12.66v50.37h-14.46l-7.66-19.61c-1.44-3.99-2.34-6.76-3.52-11.69l-.76,.14c.47,5.07,.83,11.08,.83,15.87v15.29h-12.66v-50.37Z"/>
    <path class="cls-1" d="M235.75,233.29h-10.25v-10.68h33.57v10.68h-10.25v39.68h-13.06v-39.68Z"/>
    <path class="cls-1" d="M260.99,222.6h19.5c10.07,0,15.29,4.57,15.29,12.95v1.58c0,6.01-3.02,9.79-8.56,10.76v.68c4.64,1.37,5.97,3.2,6.84,9.07l.86,5.83c.9,5.86,1.65,7.37,2.95,8.49l-.14,1.01h-13.96c-.94-1.62-1.33-3.99-1.83-8.85l-.47-4.86c-.5-4.86-1.4-6.3-4.57-6.3h-2.84v20h-13.06v-50.37Zm18.28,20.58c2.45,0,3.6-1.19,3.6-3.85v-2.55c0-2.66-1.15-3.85-3.6-3.85h-5.22v10.25h5.22Z"/>
    <path class="cls-1" d="M298.21,252.64v-9.14c0-15.29,6.08-21.87,18.71-21.87s18.71,6.58,18.71,21.87v9.14c0,14.93-6.12,21.33-18.71,21.33s-18.71-6.4-18.71-21.33Zm24.21,2.99v-15.15c0-5.76-1.8-8.53-5.5-8.53s-5.51,2.77-5.51,8.53v15.15c0,5.4,1.8,8.02,5.51,8.02s5.5-2.63,5.5-8.02Z"/>
    <path class="cls-1" d="M337.55,257.35l12.05-1.37c.25,5.94,1.62,8.2,6.15,8.2,2.63,0,4.17-1.44,4.17-3.42,0-2.55-1.62-4.68-6.62-7.34l-4.96-2.7c-4.96-2.66-10.51-6.26-10.43-14.72,.07-9.5,5.9-14.39,16.62-14.39,11.4,0,17.2,5.22,16.95,15.94l-11.3,1.19c-.07-5.29-1.98-7.41-5.83-7.41-2.59,0-4.03,1.26-4.03,2.99,0,1.87,1.19,3.89,6.55,6.51l5.11,2.59c5.04,2.55,10.79,5.79,10.79,15,0,9.86-6.4,15.51-17.63,15.51s-17.81-5.43-17.59-16.59Z"/>
    <path class="cls-1" d="M59.25,323.56l12.05-1.37c.25,5.94,1.62,8.2,6.15,8.2,2.63,0,4.17-1.44,4.17-3.42,0-2.55-1.62-4.68-6.62-7.34l-4.96-2.7c-4.96-2.66-10.51-6.26-10.43-14.72,.07-9.5,5.9-14.39,16.62-14.39,11.4,0,17.2,5.22,16.95,15.94l-11.3,1.19c-.07-5.29-1.98-7.41-5.83-7.41-2.59,0-4.03,1.26-4.03,2.99,0,1.87,1.19,3.89,6.55,6.51l5.11,2.59c5.04,2.55,10.79,5.79,10.79,15,0,9.86-6.4,15.51-17.63,15.51s-17.81-5.43-17.59-16.59Z"/>
    <path class="cls-1" d="M126.59,328.49v10.68h-29.36v-50.37h28.71v10.68h-15.65v9.46h14.35v9.25h-14.35v10.29h16.3Z"/>
    <path class="cls-1" d="M129.34,288.81h16.23l4.57,13.49c1.4,5.72,2.52,10.76,3.45,17.92h.72c1.01-7.16,2.12-12.27,3.45-17.92l4.35-13.49h16.3v50.37h-12.66l.07-18.89c0-3.42,.11-7.12,.43-11.69l-.72-.11-7.2,30.69h-9.07l-7.09-30.69-.76,.11c.32,4.53,.47,8.27,.47,11.69v18.89h-12.56v-50.37Z"/>
    <path class="cls-1" d="M191.71,288.81h17.05l11.84,50.37h-13.82l-1.01-6.04h-12.09l-1.01,6.04h-12.56l11.59-50.37Zm12.16,35.01l-2.19-11.12c-.65-4.39-1.22-8.09-1.58-12.16h-.72c-.29,4.07-.83,7.77-1.47,12.12l-2.27,11.15h8.24Z"/>
    <path class="cls-1" d="M222.31,288.81h14.43l8.02,20.76c1.11,2.84,2.09,5.83,3.2,10.04l.72-.11c-.47-5.54-.79-10.18-.79-14.25v-16.44h12.66v50.37h-14.46l-7.66-19.61c-1.44-3.99-2.34-6.76-3.53-11.69l-.75,.14c.47,5.07,.83,11.08,.83,15.87v15.29h-12.66v-50.37Z"/>
    <path class="cls-1" d="M273.84,288.81h17.05l11.84,50.37h-13.82l-1.01-6.04h-12.09l-1.01,6.04h-12.56l11.59-50.37Zm12.16,35.01l-2.19-11.12c-.65-4.39-1.22-8.09-1.58-12.16h-.72c-.29,4.07-.83,7.77-1.47,12.12l-2.27,11.15h8.24Z"/>
    <path class="cls-1" d="M317.5,288.81v50.37h-13.06v-50.37h13.06Z"/>
    <path class="cls-1" d="M320.25,323.56l12.05-1.37c.25,5.94,1.62,8.2,6.15,8.2,2.63,0,4.17-1.44,4.17-3.42,0-2.55-1.62-4.68-6.62-7.34l-4.96-2.7c-4.96-2.66-10.51-6.26-10.43-14.72,.07-9.5,5.9-14.39,16.62-14.39,11.4,0,17.2,5.22,16.95,15.94l-11.3,1.19c-.07-5.29-1.98-7.41-5.83-7.41-2.59,0-4.03,1.26-4.03,2.99,0,1.87,1.19,3.89,6.55,6.51l5.11,2.59c5.04,2.55,10.79,5.79,10.79,15,0,9.86-6.4,15.51-17.63,15.51s-17.81-5.43-17.59-16.59Z"/>
  </g>
</svg>