<?xml version="1.0" encoding="UTF-8"?>
<svg id="Camada_1" data-name="Camada 1" xmlns="http://www.w3.org/2000/svg" viewBox="0 0 400 353.49">
  <rect width="400" height="76.49"/>
  <rect y="140.22" width="400" height="76.49"/>
  <rect y="277" width="400" height="76.49"/>
</svg>