<?xml version="1.0" encoding="UTF-8"?>
<svg id="Camada_1" data-name="Camada 1" xmlns="http://www.w3.org/2000/svg" viewBox="0 0 138.28 113.19">
  <defs>
    <style>
      .cls-1 {
        fill: #0097a9;
      }
    </style>
  </defs>
  <path class="cls-1" d="M137.97,.22V44.04c0,45.62-17.53,64.95-58.57,68.93l-4.78-21.52c24.11-3.79,34.46-13.55,34.46-37.85h-30.08V.22h58.97ZM63.86,.22V44.04c0,45.62-17.73,64.95-58.77,68.93L.31,91.46c24.11-3.79,34.46-13.55,34.46-37.85H4.69V.22H63.86Z"/>
</svg>