<?xml version="1.0" encoding="UTF-8"?>
<svg id="Camada_1" data-name="Camada 1" xmlns="http://www.w3.org/2000/svg" viewBox="0 0 400 212.1">
  <path d="M40.96,.03C18.34,.03,0,18.37,0,40.99V171.12c0,22.62,18.34,40.96,40.96,40.96s40.96-18.34,40.96-40.96V40.99C81.93,18.37,63.59,.03,40.96,.03Z"/>
  <rect x="159.04" y=".03" width="81.93" height="212.05" rx="40.96" ry="40.96"/>
  <path d="M359.04,.03c-22.62,0-40.96,18.34-40.96,40.96V171.12c0,22.62,18.34,40.96,40.96,40.96s40.96-18.34,40.96-40.96V40.99C400,18.37,381.66,.03,359.04,.03Z"/>
</svg>