<?xml version="1.0" encoding="UTF-8"?>
<svg id="Modo_de_isolamento" data-name="Modo de isolamento" xmlns="http://www.w3.org/2000/svg" viewBox="0 0 1661.79 983.44">
  <defs>
    <style>
      .cls-1 {
        fill: #fff;
      }

      .cls-2 {
        fill: #0097a9;
      }
    </style>
  </defs>
  <g>
    <path class="cls-1" d="M557.35,555.29h0c-17.16-.01-33.36,4.29-47.46,11.96-.3-.58-.59-1.16-.88-1.74,13.97-7.29,29.92-11.54,46.8-11.54v-6.96c-17.9,0-34.75,4.44-49.64,12.19-17.15-36.04-30.72-72.14-47.67-116.47l15.24-22.21,.88-1.31-.46-1.74-3.48-10.89-.88-2.61-2.62,.22h-6.96v-4.36c-2.66,0-5.07,1.27-6.52,3.27h-1.53v9.36h1.53c1.45,2.01,3.85,3.48,6.52,3.48v-4.79l4.58-.22,2.17,6.97-15.24,22.42c-1.21,1.28-1.21,3.51,0,4.79,.15,.16,.29,.3,.45,.44,5.84,15.36,11.61,30.95,17.42,46.38-37.76,20.79-58.95,129.65-95.36,137.6-9.92,2.35-19.58-1.01-35.49-10.02l-48.55-128.02,2.61-.44c.36-.11,.82-.22,1.09-.44l11.11-8.92c.29-.22,.33-.77,.22-1.09-.11-.32-.33-.44-.66-.44h-4.14c-.19,0-.33,.11-.45,.22l-8.49,6.75-19.37,3.48-.88-.88c-.22-.17-.41-.11-.66,0-.84,.25-1.7,.33-2.4,.44-.22,.11-.45,.2-.66,.22-.33,.11-.56,.34-.66,.66-.14,.32-.14,.67,.22,.88l3.26,2.39c.46,.37,.93,.54,1.52,.44l11.76-2.17,12.63,34.62H141.26s-17.69-24.93-18.51-26.14c-.82-1.2-2.64-3.92-7.4-3.92s-3.68,3.21-1.74,5.88c1.93,2.67,18.29,28.08,18.29,28.08h36.14l9.14,24.17c-39.18,16.23-66.84,54.77-66.84,99.72h6.96c0-42.18,25.66-78.23,62.27-93.4l.45,1.31c-35.97,15.04-61.18,50.76-61.18,92.09,0,54.91,44.59,99.5,99.5,99.5,50.5,0,92.23-37.86,98.63-86.65l8.92,.87c1.77,12.26,12.3,21.77,25.04,21.77,5.92,0,11.36-2.04,15.68-5.44l1.09,1.1h7.62l-4.78-5.01c2.53-3.06,4.37-6.64,5.22-10.66,65.96,.41,63.07-118.84,111.91-132.15,3.53,8.68,7.01,17.15,10.66,25.47-30.27,19.15-50.5,52.83-50.5,91.22h6.96c0-35.74,18.46-66.96,46.38-84.9,.3,.64,.58,1.32,.88,1.96-26.73,17.88-44.42,48.46-44.42,82.95,0,54.91,44.81,99.51,99.71,99.51s99.49-44.59,99.49-99.51-44.59-99.7-99.49-99.7Zm-201.42,84.9h0c-1.59-.32-3.31-.44-5-.44-1.6,0-3.06,.37-4.57,.66l-1.96-4.79c4.02,1.92,7.87,3.46,11.53,4.57Zm-58.12-109.08l4.79,12.63-19.81,24.82c-6.69-5.01-13.81-9.26-21.55-12.63l9.36-24.82h27.22Zm-45.51,48.34c5.33,2.39,10.38,5.29,15.02,8.71h0s-34.84,43.55-34.84,43.55l19.82-52.26Zm-29.17,60.09c-.29-.11-.58-.14-.88-.22v-67.06c8.56,.39,16.71,2,24.39,4.79l-23.52,62.49Zm35.04-75.77h0l.66-1.52c7.08,3.09,13.69,6.98,19.81,11.54l-1.09,1.3c-5.98-4.45-12.47-8.29-19.37-11.32Zm-35.92-32.66h41.81l-8.49,22.65c-10.47-3.87-21.62-6.11-33.31-6.53v-16.12Zm0,23.08c10.86,.41,21.22,2.32,30.92,5.87l-.66,1.52c-9.52-3.49-19.65-5.68-30.27-6.1v-1.3Zm-47.68-23.08h41.8v15.9c-11.76,.21-22.96,2.4-33.53,6.09l-8.27-21.99Zm41.8,40.93h0s0,67.06,0,67.06c-.33,.11-.8,.13-1.09,.21l-23.72-62.7c7.83-2.68,16.1-4.37,24.81-4.57Zm-30.7-11.1h0l-.45-1.52c9.79-3.38,20.23-5.24,31.13-5.44h.02v1.52c-10.73,.21-21.05,2.08-30.69,5.44Zm32.67,176.79h0c-45.87,0-82.95-36.87-82.95-82.74,0-34.33,20.84-63.81,50.51-76.42l23.95,63.14c-4.21,2.88-6.97,7.83-6.97,13.28,0,8.79,7.11,15.89,15.89,15.89,7.03,0,13.12-4.55,15.25-10.89l66.4,6.32c-5.54,40.44-40.08,71.42-82.08,71.42Zm82.72-78.16l-66.41-6.53c-.41-3.09-1.81-5.93-3.7-8.27l41.8-52.25h0c17.38,15.17,28.52,37.52,28.52,62.47,0,1.54-.15,3.06-.22,4.58h0Zm24.83,2.39l-8.28-.87c.14-2.06,.22-4.01,.22-6.1,0-30.21-13.52-57.27-34.84-75.54l1.09-1.31c21.55,18.51,35.27,46.12,35.27,76.85h6.96c0-32.83-14.89-62.26-38.1-82.08l17.2-21.55h0s34.18,91.22,34.18,91.22c-7.34,3.72-12.66,10.85-13.71,19.37h0Zm42.24,16.77l-6.97-6.96c-2.26-2.44-3.48-4.74-3.48-6.32,0-1.9,1.78-4.78,5-7.84-1.02-1.51-2.18-2.68-3.69-3.7-3.06,3.24-5.93,5.01-7.84,5.01s-4.78-1.77-7.84-5.01c-1.51,1.02-2.89,2.19-3.92,3.7,3.24,3.06,5.23,5.94,5.23,7.84s-1.99,4.79-5.23,7.84c1.02,1.52,2.4,2.91,3.92,3.93,3.06-3.23,5.94-5.23,7.84-5.23,1.66,0,3.93,1.63,6.54,4.14l6.53,6.54c-3.71,2.79-8.3,4.56-13.28,4.56-12.23,0-22.21-9.97-22.21-22.2s9.98-21.98,22.21-21.98,22.2,9.75,22.2,21.98c0,5.2-1.98,9.91-5,13.7Zm-13.3-13.29c0,2.07-1.63,3.93-3.69,3.93s-3.92-1.86-3.92-3.93,1.85-3.7,3.92-3.7c2.06,0,3.69,1.64,3.69,3.7Zm21.14-1.74c-.57-10.59-7.4-19.43-16.98-22.65,7.68,1.93,16.55,.99,22.2-2.39,46.24-25.5,59.71-118.53,91.23-139.12,4.14,10.92,8.38,21.59,12.63,32.22-61.74,28.79-45.79,128.21-109.08,131.94Zm181.35,74.02h0c-45.87,0-82.95-36.87-82.95-82.73,0-27.89,13.78-52.48,34.83-67.49,11.34,23.27,23.69,44.03,37.44,60.74-1.2,1.93-1.95,4.3-1.95,6.74,0,6.97,5.66,12.63,12.63,12.63s12.64-5.65,12.64-12.63-5.66-12.63-12.64-12.63c-1.25,0-2.55,.11-3.7,.44-14.13-21.44-26.04-41.2-36.14-60.52,11.81-6.46,25.39-10.23,39.84-10.23,45.87,0,82.74,37.09,82.74,82.95,0,45.87-36.88,82.74-82.75,82.74Z"/>
    <path class="cls-1" d="M416.89,414.19h1.53c.87,0,1.52-.88,1.52-1.74v-9.36c0-.88-.66-1.52-1.52-1.52h-1.53c-.86,0-1.51,.66-1.51,1.52v9.36c0,.88,.65,1.74,1.51,1.74Z"/>
    <polygon class="cls-1" points="425.16 403.53 424.7 403.31 421.9 403.31 421.24 403.53 423.19 404.83 425.16 403.53"/>
    <polygon class="cls-1" points="430.37 403.53 429.71 403.31 426.91 403.31 426.45 403.53 428.42 404.83 430.37 403.53"/>
    <polygon class="cls-1" points="435.39 403.53 434.94 403.31 432.13 403.31 431.48 403.53 433.44 404.83 435.39 403.53"/>
    <polygon class="cls-1" points="440.6 403.53 439.94 403.31 437.15 403.31 436.68 403.53 438.64 404.83 440.6 403.53"/>
    <polygon class="cls-1" points="445.62 403.53 445.16 403.31 442.15 403.31 441.7 403.53 443.66 404.83 445.62 403.53"/>
    <polygon class="cls-1" points="450.63 403.53 450.18 403.31 447.37 403.31 446.72 403.53 448.67 404.83 450.63 403.53"/>
    <polygon class="cls-1" points="420.81 403.95 420.81 406.14 422.77 405.04 420.81 403.95"/>
    <polygon class="cls-1" points="425.82 406.15 427.78 405.06 425.82 403.96 423.87 405.06 425.82 406.15"/>
    <polygon class="cls-1" points="430.83 406.15 432.79 405.06 430.83 403.96 428.87 405.06 430.83 406.15"/>
    <polygon class="cls-1" points="436.06 406.15 438.02 405.06 436.06 403.96 434.09 405.06 436.06 406.15"/>
    <polygon class="cls-1" points="441.06 406.15 443.02 405.06 441.06 403.96 439.1 405.06 441.06 406.15"/>
    <polygon class="cls-1" points="446.29 406.15 448.25 405.06 446.29 403.96 444.32 405.06 446.29 406.15"/>
    <polygon class="cls-1" points="451.29 403.97 451.29 403.96 449.33 405.06 451.29 406.15 451.29 403.97"/>
    <polygon class="cls-1" points="421.25 406.58 423.21 407.67 425.16 406.58 423.21 405.49 421.25 406.58"/>
    <polygon class="cls-1" points="426.48 406.58 428.43 407.67 430.39 406.58 428.43 405.49 426.48 406.58"/>
    <polygon class="cls-1" points="431.48 406.58 433.44 407.67 435.39 406.58 433.44 405.49 431.48 406.58"/>
    <polygon class="cls-1" points="436.71 406.58 438.66 407.67 440.63 406.58 438.66 405.49 436.71 406.58"/>
    <polygon class="cls-1" points="441.71 406.58 443.67 407.67 445.63 406.58 443.67 405.49 441.71 406.58"/>
    <polygon class="cls-1" points="448.68 405.49 446.72 406.58 448.68 407.67 450.64 406.58 448.68 405.49"/>
    <polygon class="cls-1" points="420.81 406.78 420.81 408.97 422.55 407.87 420.81 406.78"/>
    <polygon class="cls-1" points="423.86 407.89 425.82 408.98 427.78 407.89 425.82 406.8 423.86 407.89"/>
    <polygon class="cls-1" points="428.87 407.89 430.83 408.98 432.79 407.89 430.83 406.8 428.87 407.89"/>
    <polygon class="cls-1" points="434.08 407.89 436.06 408.98 438.01 407.89 436.06 406.8 434.08 407.89"/>
    <polygon class="cls-1" points="439.1 407.89 441.06 408.98 443.02 407.89 441.06 406.8 439.1 407.89"/>
    <polygon class="cls-1" points="444.32 407.89 446.29 408.98 448.25 407.89 446.29 406.8 444.32 407.89"/>
    <polygon class="cls-1" points="451.29 406.8 451.29 406.79 449.33 407.89 451.29 408.98 451.29 406.8"/>
    <polygon class="cls-1" points="423.21 410.5 425.16 409.41 423.21 408.32 421.25 409.41 423.21 410.5"/>
    <polygon class="cls-1" points="426.48 409.41 428.43 410.5 430.39 409.41 428.43 408.32 426.48 409.41"/>
    <polygon class="cls-1" points="431.48 409.41 433.44 410.5 435.39 409.41 433.44 408.32 431.48 409.41"/>
    <polygon class="cls-1" points="436.71 409.41 438.66 410.5 440.63 409.41 438.66 408.32 436.71 409.41"/>
    <polygon class="cls-1" points="441.71 409.41 443.67 410.5 445.63 409.41 443.67 408.32 441.71 409.41"/>
    <polygon class="cls-1" points="448.68 410.5 450.64 409.41 448.68 408.32 446.72 409.41 448.68 410.5"/>
    <polygon class="cls-1" points="427.77 410.71 425.82 409.63 423.86 410.71 425.82 412.01 427.77 410.71"/>
    <polygon class="cls-1" points="432.79 410.71 430.83 409.63 428.87 410.71 430.83 412.01 432.79 410.71"/>
    <polygon class="cls-1" points="438.01 410.71 436.05 409.63 434.08 410.71 436.05 412.01 438.01 410.71"/>
    <polygon class="cls-1" points="443.01 410.71 441.06 409.63 439.1 410.71 441.06 412.01 443.01 410.71"/>
    <polygon class="cls-1" points="448.25 410.71 446.29 409.63 444.31 410.71 446.29 412.01 448.25 410.71"/>
    <polygon class="cls-1" points="420.81 409.84 420.81 412.02 422.77 410.92 420.81 409.84"/>
    <polygon class="cls-1" points="451.29 409.85 451.29 409.84 449.33 410.94 451.29 412.03 451.29 409.85"/>
    <polygon class="cls-1" points="421.91 412.46 424.74 412.46 425.19 412.24 423.23 411.15 423.21 411.15 421.25 412.24 421.91 412.46"/>
    <polygon class="cls-1" points="429.76 412.46 430.41 412.24 428.46 411.15 428.43 411.15 426.48 412.24 426.93 412.46 429.76 412.46"/>
    <polygon class="cls-1" points="434.97 412.46 435.42 412.24 433.47 411.15 433.44 411.15 431.48 412.24 432.14 412.46 434.97 412.46"/>
    <polygon class="cls-1" points="439.99 412.46 440.64 412.24 438.69 411.15 438.67 411.15 436.71 412.24 437.16 412.46 439.99 412.46"/>
    <polygon class="cls-1" points="445.22 412.46 445.67 412.24 443.7 411.15 443.67 411.15 441.72 412.24 442.18 412.46 445.22 412.46"/>
    <polygon class="cls-1" points="450.2 412.46 450.66 412.24 448.69 411.15 448.68 411.15 446.71 412.24 447.36 412.46 450.2 412.46"/>
    <path class="cls-1" d="M281.03,483.21h0c12.24-4.48,28.78-4.05,40.06-3.04,.33,0,.72-.15,.88-.44,.79-1.56,.64-8.34,0-9.79-8.11-5.03-17.94-6.56-27.87-6.53-16.55,.11-33.59,4.13-45.29,2.18h-.22c-2.04,.11-3.71,1.87-3.71,3.91v7.62c6.07,5.35,14.36,9.45,20.69,12.19,4.85,1.09,12.09-4.25,15.46-6.11Z"/>
    <path class="cls-1" d="M366.38,656.52l.22-1.53-1.52-.44v-1.51h-1.52v-1.53h-1.52l-.45-1.51-1.52,.21-.45-1.31-1.52,.22-.66-1.3-1.52,.66-.88-1.31-1.31,.87-.88-1.09-1.31,.88-1.07-1.07-1.08,1.06-1.31-.88-.88,1.3-1.31-.65-.88,1.08-1.52-.43-.66,1.52-1.31-.44-.45,1.52-1.52-.22-.46,1.52-1.3,.22-.22,1.31-1.31,.44v1.3l-1.52,.66,.45,1.3-1.31,.66,.46,1.51-1.31,.66,.66,1.52-1.09,.88,.66,1.31-1.09,1.09,1.09,1.09-.88,1.31,1.09,.88-.66,1.3,1.09,.88-.45,1.52,1.09,.66-.22,1.52,1.31,.44-.22,1.53,1.52,.43v1.31l1.52,.21,.22,1.53h1.31l.45,1.51,1.52-.21,.45,1.31,1.52-.44,.66,1.3,1.52-.44,.88,1.09,1.31-.66,.88,1.09,1.3-.88,1.09,.88,1.09-.88,1.31,.66,.88-1.09,1.52,.65,.66-1.3,1.52,.44,.66-1.3,1.3,.44,.45-1.31-1.96-2.17c-2.28,1.41-4.95,2.17-7.84,2.17-8.29,0-15.03-6.74-15.03-15.02s6.74-14.81,15.03-14.81,14.81,6.53,14.81,14.81c0,2.88-.77,5.77-2.17,8.05l2.17,1.95,1.31-.43-.45-1.31,1.52-.65-.45-1.52,1.09-.87-.66-1.31,1.3-.88-.88-1.31,1.09-1.09-1.09-1.1,.88-1.3-1.09-.87,.88-1.31-1.31-.87,.68-1.51-1.31-.65,.22-1.52-1.31-.44Z"/>
    <polygon class="cls-1" points="350.46 646.73 350.42 646.73 350.45 646.75 350.46 646.73"/>
    <path class="cls-1" d="M348.07,665.45c0,1.7,1.35,3.27,3.06,3.27s3.04-1.57,3.04-3.27-1.35-3.05-3.04-3.05c-1.7,0-3.06,1.36-3.06,3.05Z"/>
    <path class="cls-1" d="M384.44,686.78h-19.38c-1.25,0-2.17,.93-2.17,2.17v2.39c0,1.25,.93,2.39,2.17,2.39h19.38c1.25,0,2.18-1.15,2.18-2.39v-2.39c0-1.24-.93-2.17-2.18-2.17Zm-18.51,4.14c-.41,0-.88-.24-.88-.65s.45-.88,.88-.88,.66,.46,.66,.88-.22,.65-.66,.65Zm3.05,.44c-.63,0-1.09-.46-1.09-1.09s.46-1.09,1.09-1.09,1.09,.46,1.09,1.09-.47,1.09-1.09,1.09Zm5.66,1.73c-1.59,0-2.82-1.24-2.82-2.83s1.24-2.83,2.82-2.83,3.05,1.25,3.05,2.83-1.46,2.83-3.05,2.83Zm5.66-1.73c-.62,0-1.09-.46-1.09-1.09s.47-1.09,1.09-1.09,1.09,.46,1.09,1.09c0,.62-.47,1.09-1.09,1.09Zm3.27-.44c-.41,0-.88-.24-.88-.65s.46-.88,.88-.88,.66,.46,.66,.88-.23,.65-.66,.65Z"/>
    <path class="cls-1" d="M374.64,688.74c-.81,0-1.31,.72-1.31,1.52s.51,1.31,1.31,1.31,1.52-.51,1.52-1.31c0-.8-.72-1.52-1.52-1.52Z"/>
  </g>
  <path class="cls-1" d="M1585.01,47.27v-10.72H377.52c-2.96,0-5.36,2.4-5.36,5.36h0V228.55c-48.92,.7-96.39,10.65-141.18,29.59-44.9,18.99-85.23,46.18-119.85,80.81-34.63,34.63-61.81,74.95-80.81,119.85C10.65,505.3,.68,554.68,.68,605.58s9.97,100.28,29.64,146.78c18.99,44.9,46.18,85.23,80.81,119.85,34.63,34.63,74.95,61.81,119.85,80.81,46.49,19.67,95.88,29.64,146.78,29.64s100.28-9.97,146.78-29.64c44.9-18.99,85.23-46.18,119.85-80.81,34.63-34.63,61.81-74.95,80.81-119.85,19.67-46.49,29.64-95.88,29.64-146.78s-9.97-100.28-29.64-146.78c-18.99-44.9-46.18-85.23-80.81-119.85-34.63-34.63-74.95-61.81-119.85-80.81-44.93-19-92.56-28.95-141.65-29.6V47.27H1585.01ZM734.82,605.58c0,196.89-160.18,357.07-357.07,357.07S20.68,802.47,20.68,605.58,180.86,248.51,377.75,248.51s357.07,160.18,357.07,357.07Z"/>
  <circle class="cls-2" cx="1619.75" cy="41.91" r="41.75"/>
</svg>