<?xml version="1.0" encoding="UTF-8"?>
<svg id="BACKGROUND" xmlns="http://www.w3.org/2000/svg" viewBox="0 0 400 400">
  <defs>
    <style>
      .cls-1 {
        fill: #f5842b;
      }
    </style>
  </defs>
  <path class="cls-1" d="M200,399.66C89.91,399.66,.34,310.09,.34,200S89.91,.34,200,.34s199.66,89.57,199.66,199.66-89.57,199.66-199.66,199.66Zm0-393.7C93,5.96,5.96,93,5.96,200s87.05,194.04,194.04,194.04,194.04-87.05,194.04-194.04S307,5.96,200,5.96Z"/>
  <path class="cls-1" d="M200,355.45c-85.71,0-155.45-69.73-155.45-155.45S114.29,44.55,200,44.55s155.45,69.73,155.45,155.45-69.73,155.45-155.45,155.45Zm0-305.28c-82.62,0-149.83,67.21-149.83,149.83s67.21,149.83,149.83,149.83,149.83-67.21,149.83-149.83S282.62,50.17,200,50.17Z"/>
  <path class="cls-1" d="M200,307.02c-59.01,0-107.02-48.01-107.02-107.02s48.01-107.02,107.02-107.02,107.02,48.01,107.02,107.02-48.01,107.02-107.02,107.02Zm0-208.43c-55.92,0-101.41,45.49-101.41,101.41s45.49,101.41,101.41,101.41,101.41-45.49,101.41-101.41-45.49-101.41-101.41-101.41Z"/>
</svg>