<?xml version="1.0" encoding="UTF-8"?>
<svg id="Layer_1" data-name="Layer 1" xmlns="http://www.w3.org/2000/svg" viewBox="0 0 400 400">
  <defs>
    <style>
      .cls-1 {
        fill: #fff;
      }
    </style>
  </defs>
  <path class="cls-1" d="M383.27,8.58C284.99-15.43,179.49,14.08,107.94,85.62,37.88,155.68,8.16,258.29,29.5,354.81l-25.88,25.88c-4.34,4.34-4.34,11.36,0,15.69,2.16,2.17,5,3.25,7.84,3.25s5.68-1.08,7.85-3.25l25.87-25.87c20.62,4.56,41.52,6.82,62.33,6.82,76.55,0,151.78-30.17,206.86-85.26,71.55-71.55,101.07-177.05,77.04-275.34-.98-4.02-4.12-7.16-8.14-8.14h0Zm-84.59,267.79c-61.32,61.31-149.61,89.17-234.55,75.18L329.95,85.74c4.34-4.34,4.34-11.36,0-15.69-4.33-4.34-11.36-4.34-15.69,0L48.45,335.87c-14-84.94,13.88-173.24,75.19-234.56C188.13,36.82,282.48,9.29,371.4,28.61c19.33,88.9-8.21,183.26-72.7,247.76h0Z"/>
</svg>