<?xml version="1.0" encoding="UTF-8"?>
<svg id="Layer_1" data-name="Layer 1" xmlns="http://www.w3.org/2000/svg" viewBox="0 0 200 200">
  <defs>
    <style>
      .cls-1 {
        fill: #d76409;
      }
    </style>
  </defs>
  <path class="cls-1" d="M60.08,.22s.03-.01,.03-.03,0-.03-.03-.03-.03,.01-.03,.03,0,.03,.03,.03Z"/>
  <path class="cls-1" d="M70.06,.25s.06-.02,.06-.06-.02-.06-.06-.06-.06,.02-.06,.06,.02,.06,.06,.06Z"/>
  <circle class="cls-1" cx="80.04" cy=".19" r=".14"/>
  <path class="cls-1" d="M90.02,.36c.09,0,.17-.07,.17-.17s-.07-.17-.17-.17-.17,.07-.17,.17,.07,.17,.17,.17Z"/>
  <path class="cls-1" d="M100,.39c.11,0,.19-.09,.19-.19s-.09-.19-.19-.19-.19,.09-.19,.19,.09,.19,.19,.19Z"/>
  <path class="cls-1" d="M109.98,.36c.09,0,.17-.07,.17-.17s-.07-.17-.17-.17-.17,.07-.17,.17,.07,.17,.17,.17Z"/>
  <path class="cls-1" d="M119.96,.33c.08,0,.14-.06,.14-.14s-.06-.14-.14-.14-.14,.06-.14,.14,.06,.14,.14,.14Z"/>
  <path class="cls-1" d="M129.94,.28s.08-.04,.08-.08-.04-.08-.08-.08-.08,.04-.08,.08,.04,.08,.08,.08Z"/>
  <circle class="cls-1" cx="139.92" cy=".19" r=".03"/>
  <circle class="cls-1" cx="50.1" cy="10.17" r=".11"/>
  <path class="cls-1" d="M60.08,10.42c.14,0,.25-.11,.25-.25s-.11-.25-.25-.25-.25,.11-.25,.25,.11,.25,.25,.25Z"/>
  <path class="cls-1" d="M70.06,10.53c.2,0,.36-.16,.36-.36s-.16-.36-.36-.36-.36,.16-.36,.36,.16,.36,.36,.36Z"/>
  <circle class="cls-1" cx="80.04" cy="10.17" r=".44"/>
  <path class="cls-1" d="M90.02,10.67c.28,0,.5-.22,.5-.5s-.22-.5-.5-.5-.5,.22-.5,.5,.22,.5,.5,.5Z"/>
  <path class="cls-1" d="M100,10.7c.29,0,.53-.24,.53-.53s-.24-.53-.53-.53-.53,.24-.53,.53,.24,.53,.53,.53Z"/>
  <path class="cls-1" d="M109.98,10.67c.28,0,.5-.22,.5-.5s-.22-.5-.5-.5-.5,.22-.5,.5,.22,.5,.5,.5Z"/>
  <circle class="cls-1" cx="119.96" cy="10.17" r=".44"/>
  <path class="cls-1" d="M129.94,10.53c.2,0,.36-.16,.36-.36s-.16-.36-.36-.36-.36,.16-.36,.36,.16,.36,.36,.36Z"/>
  <path class="cls-1" d="M139.92,10.42c.14,0,.25-.11,.25-.25s-.11-.25-.25-.25-.25,.11-.25,.25,.11,.25,.25,.25Z"/>
  <circle class="cls-1" cx="149.9" cy="10.17" r=".11"/>
  <path class="cls-1" d="M159.88,10.2s.03-.01,.03-.03,0-.03-.03-.03-.03,.01-.03,.03,0,.03,.03,.03Z"/>
  <path class="cls-1" d="M30.14,20.18s.03-.01,.03-.03-.01-.03-.03-.03-.03,.01-.03,.03,.01,.03,.03,.03Z"/>
  <path class="cls-1" d="M40.12,20.35c.11,0,.19-.09,.19-.19s-.09-.19-.19-.19-.19,.09-.19,.19,.09,.19,.19,.19Z"/>
  <path class="cls-1" d="M50.1,20.54c.21,0,.39-.17,.39-.39s-.17-.39-.39-.39-.39,.17-.39,.39,.17,.39,.39,.39Z"/>
  <circle class="cls-1" cx="60.08" cy="20.16" r=".55"/>
  <path class="cls-1" d="M70.06,20.85c.38,0,.69-.31,.69-.69s-.31-.69-.69-.69-.69,.31-.69,.69,.31,.69,.69,.69Z"/>
  <circle class="cls-1" cx="80.04" cy="20.16" r=".77"/>
  <path class="cls-1" d="M90.02,21.01c.47,0,.86-.38,.86-.86s-.38-.86-.86-.86-.86,.38-.86,.86,.38,.86,.86,.86Z"/>
  <circle class="cls-1" cx="100" cy="20.16" r=".89"/>
  <path class="cls-1" d="M109.98,21.01c.47,0,.86-.38,.86-.86s-.38-.86-.86-.86-.86,.38-.86,.86,.38,.86,.86,.86Z"/>
  <circle class="cls-1" cx="119.96" cy="20.16" r=".8"/>
  <path class="cls-1" d="M129.94,20.85c.38,0,.69-.31,.69-.69s-.31-.69-.69-.69-.69,.31-.69,.69,.31,.69,.69,.69Z"/>
  <circle class="cls-1" cx="139.92" cy="20.16" r=".55"/>
  <path class="cls-1" d="M149.9,20.54c.21,0,.39-.17,.39-.39s-.17-.39-.39-.39-.39,.17-.39,.39,.17,.39,.39,.39Z"/>
  <path class="cls-1" d="M159.88,20.35c.11,0,.19-.09,.19-.19s-.09-.19-.19-.19-.19,.09-.19,.19,.09,.19,.19,.19Z"/>
  <path class="cls-1" d="M169.86,20.18s.03-.01,.03-.03,0-.03-.03-.03-.03,.01-.03,.03,0,.03,.03,.03Z"/>
  <circle class="cls-1" cx="20.15" cy="30.14" r=".03"/>
  <circle class="cls-1" cx="30.14" cy="30.14" r=".22"/>
  <circle class="cls-1" cx="40.12" cy="30.14" r=".44"/>
  <circle class="cls-1" cx="50.1" cy="30.14" r=".66"/>
  <path class="cls-1" d="M60.08,30.99c.47,0,.86-.38,.86-.86s-.38-.86-.86-.86-.86,.38-.86,.86,.38,.86,.86,.86Z"/>
  <circle class="cls-1" cx="70.06" cy="30.14" r="1"/>
  <circle class="cls-1" cx="80.04" cy="30.14" r="1.11"/>
  <path class="cls-1" d="M90.02,31.33c.66,0,1.19-.53,1.19-1.19s-.53-1.19-1.19-1.19-1.19,.53-1.19,1.19,.53,1.19,1.19,1.19Z"/>
  <circle class="cls-1" cx="100" cy="30.14" r="1.22"/>
  <circle class="cls-1" cx="109.98" cy="30.14" r="1.19"/>
  <circle class="cls-1" cx="119.96" cy="30.14" r="1.11"/>
  <circle class="cls-1" cx="129.94" cy="30.14" r="1"/>
  <circle class="cls-1" cx="139.92" cy="30.14" r=".86"/>
  <circle class="cls-1" cx="149.9" cy="30.14" r=".66"/>
  <path class="cls-1" d="M159.88,30.61c.26,0,.47-.21,.47-.47s-.21-.47-.47-.47-.47,.21-.47,.47,.21,.47,.47,.47Z"/>
  <circle class="cls-1" cx="169.86" cy="30.14" r=".25"/>
  <circle class="cls-1" cx="179.84" cy="30.14" r=".03"/>
  <path class="cls-1" d="M20.15,40.31c.11,0,.19-.09,.19-.19s-.09-.19-.19-.19-.19,.09-.19,.19,.09,.19,.19,.19Z"/>
  <circle class="cls-1" cx="30.14" cy="40.12" r=".44"/>
  <path class="cls-1" d="M40.12,40.81c.38,0,.69-.31,.69-.69s-.31-.69-.69-.69-.69,.31-.69,.69,.31,.69,.69,.69Z"/>
  <path class="cls-1" d="M50.1,41.06c.52,0,.94-.42,.94-.94s-.42-.94-.94-.94-.94,.42-.94,.94,.42,.94,.94,.94Z"/>
  <circle class="cls-1" cx="60.08" cy="40.12" r="1.13"/>
  <path class="cls-1" d="M70.06,41.42c.72,0,1.3-.58,1.3-1.3s-.58-1.3-1.3-1.3-1.3,.58-1.3,1.3,.58,1.3,1.3,1.3Z"/>
  <circle class="cls-1" cx="80.04" cy="40.12" r="1.44"/>
  <path class="cls-1" d="M90.02,41.64c.84,0,1.52-.68,1.52-1.52s-.68-1.52-1.52-1.52-1.52,.68-1.52,1.52,.68,1.52,1.52,1.52Z"/>
  <path class="cls-1" d="M100,41.67c.86,0,1.55-.69,1.55-1.55s-.69-1.55-1.55-1.55-1.55,.69-1.55,1.55,.69,1.55,1.55,1.55Z"/>
  <path class="cls-1" d="M109.98,41.64c.84,0,1.52-.68,1.52-1.52s-.68-1.52-1.52-1.52-1.52,.68-1.52,1.52,.68,1.52,1.52,1.52Z"/>
  <circle class="cls-1" cx="119.96" cy="40.12" r="1.44"/>
  <path class="cls-1" d="M129.94,41.42c.72,0,1.3-.58,1.3-1.3s-.58-1.3-1.3-1.3-1.3,.58-1.3,1.3,.58,1.3,1.3,1.3Z"/>
  <circle class="cls-1" cx="139.92" cy="40.12" r="1.13"/>
  <path class="cls-1" d="M149.9,41.06c.52,0,.94-.42,.94-.94s-.42-.94-.94-.94-.94,.42-.94,.94,.42,.94,.94,.94Z"/>
  <path class="cls-1" d="M159.88,40.84c.4,0,.72-.32,.72-.72s-.32-.72-.72-.72-.72,.32-.72,.72,.32,.72,.72,.72Z"/>
  <path class="cls-1" d="M169.86,40.59c.26,0,.47-.21,.47-.47s-.21-.47-.47-.47-.47,.21-.47,.47,.21,.47,.47,.47Z"/>
  <path class="cls-1" d="M179.84,40.31c.11,0,.19-.09,.19-.19s-.09-.19-.19-.19-.19,.09-.19,.19,.09,.19,.19,.19Z"/>
  <path class="cls-1" d="M189.83,40.14s.03,0,.03-.03,0-.03-.03-.03-.03,0-.03,.03,0,.03,.03,.03Z"/>
  <circle class="cls-1" cx="10.17" cy="50.1" r=".11"/>
  <path class="cls-1" d="M20.15,50.48c.21,0,.39-.17,.39-.39s-.17-.39-.39-.39-.39,.17-.39,.39,.17,.39,.39,.39Z"/>
  <circle class="cls-1" cx="30.14" cy="50.1" r=".66"/>
  <path class="cls-1" d="M40.12,51.04c.52,0,.94-.42,.94-.94s-.42-.94-.94-.94-.94,.42-.94,.94,.42,.94,.94,.94Z"/>
  <path class="cls-1" d="M50.1,51.29c.66,0,1.19-.53,1.19-1.19s-.53-1.19-1.19-1.19-1.19,.53-1.19,1.19,.53,1.19,1.19,1.19Z"/>
  <path class="cls-1" d="M60.08,51.51c.78,0,1.41-.63,1.41-1.41s-.63-1.41-1.41-1.41-1.41,.63-1.41,1.41,.63,1.41,1.41,1.41Z"/>
  <path class="cls-1" d="M70.06,51.7c.89,0,1.61-.72,1.61-1.61s-.72-1.61-1.61-1.61-1.61,.72-1.61,1.61,.72,1.61,1.61,1.61Z"/>
  <path class="cls-1" d="M80.04,51.84c.96,0,1.74-.78,1.74-1.74s-.78-1.74-1.74-1.74-1.74,.78-1.74,1.74,.78,1.74,1.74,1.74Z"/>
  <path class="cls-1" d="M90.02,51.95c1.02,0,1.85-.83,1.85-1.85s-.83-1.85-1.85-1.85-1.85,.83-1.85,1.85,.83,1.85,1.85,1.85Z"/>
  <path class="cls-1" d="M100,51.98c1.04,0,1.88-.84,1.88-1.88s-.84-1.88-1.88-1.88-1.88,.84-1.88,1.88,.84,1.88,1.88,1.88Z"/>
  <path class="cls-1" d="M109.98,51.95c1.02,0,1.85-.83,1.85-1.85s-.83-1.85-1.85-1.85-1.85,.83-1.85,1.85,.83,1.85,1.85,1.85Z"/>
  <path class="cls-1" d="M119.96,51.87c.98,0,1.77-.79,1.77-1.77s-.79-1.77-1.77-1.77-1.77,.79-1.77,1.77,.79,1.77,1.77,1.77Z"/>
  <path class="cls-1" d="M129.94,51.7c.89,0,1.61-.72,1.61-1.61s-.72-1.61-1.61-1.61-1.61,.72-1.61,1.61,.72,1.61,1.61,1.61Z"/>
  <path class="cls-1" d="M139.92,51.51c.78,0,1.41-.63,1.41-1.41s-.63-1.41-1.41-1.41-1.41,.63-1.41,1.41,.63,1.41,1.41,1.41Z"/>
  <path class="cls-1" d="M149.9,51.29c.66,0,1.19-.53,1.19-1.19s-.53-1.19-1.19-1.19-1.19,.53-1.19,1.19,.53,1.19,1.19,1.19Z"/>
  <path class="cls-1" d="M159.88,51.04c.52,0,.94-.42,.94-.94s-.42-.94-.94-.94-.94,.42-.94,.94,.42,.94,.94,.94Z"/>
  <circle class="cls-1" cx="169.86" cy="50.1" r=".66"/>
  <path class="cls-1" d="M179.84,50.48c.21,0,.39-.17,.39-.39s-.17-.39-.39-.39-.39,.17-.39,.39,.17,.39,.39,.39Z"/>
  <circle class="cls-1" cx="189.83" cy="50.1" r=".11"/>
  <path class="cls-1" d="M.19,60.11s.03,0,.03-.03-.01-.03-.03-.03-.03,0-.03,.03,.01,.03,.03,.03Z"/>
  <circle class="cls-1" cx="10.17" cy="60.08" r=".25"/>
  <circle class="cls-1" cx="20.15" cy="60.08" r=".55"/>
  <path class="cls-1" d="M30.14,60.94c.47,0,.86-.38,.86-.86s-.38-.86-.86-.86-.86,.38-.86,.86,.38,.86,.86,.86Z"/>
  <circle class="cls-1" cx="40.12" cy="60.08" r="1.13"/>
  <circle class="cls-1" cx="50.1" cy="60.08" r="1.41"/>
  <path class="cls-1" d="M60.08,61.74c.92,0,1.66-.74,1.66-1.66s-.74-1.66-1.66-1.66-1.66,.74-1.66,1.66,.74,1.66,1.66,1.66Z"/>
  <path class="cls-1" d="M70.06,61.96c1.04,0,1.88-.84,1.88-1.88s-.84-1.88-1.88-1.88-1.88,.84-1.88,1.88,.84,1.88,1.88,1.88Z"/>
  <circle class="cls-1" cx="80.04" cy="60.08" r="2.05"/>
  <path class="cls-1" d="M90.02,62.26c1.21,0,2.19-.98,2.19-2.19s-.98-2.19-2.19-2.19-2.19,.98-2.19,2.19,.98,2.19,2.19,2.19Z"/>
  <path class="cls-1" d="M100,62.29c1.22,0,2.21-.99,2.21-2.21s-.99-2.21-2.21-2.21-2.21,.99-2.21,2.21,.99,2.21,2.21,2.21Z"/>
  <path class="cls-1" d="M109.98,62.26c1.21,0,2.19-.98,2.19-2.19s-.98-2.19-2.19-2.19-2.19,.98-2.19,2.19,.98,2.19,2.19,2.19Z"/>
  <path class="cls-1" d="M119.96,62.15c1.15,0,2.08-.93,2.08-2.08s-.93-2.08-2.08-2.08-2.08,.93-2.08,2.08,.93,2.08,2.08,2.08Z"/>
  <path class="cls-1" d="M129.94,61.96c1.04,0,1.88-.84,1.88-1.88s-.84-1.88-1.88-1.88-1.88,.84-1.88,1.88,.84,1.88,1.88,1.88Z"/>
  <circle class="cls-1" cx="139.92" cy="60.08" r="1.69"/>
  <path class="cls-1" d="M149.9,61.49c.78,0,1.41-.63,1.41-1.41s-.63-1.41-1.41-1.41-1.41,.63-1.41,1.41,.63,1.41,1.41,1.41Z"/>
  <path class="cls-1" d="M159.88,61.21c.63,0,1.13-.51,1.13-1.13s-.51-1.13-1.13-1.13-1.13,.51-1.13,1.13,.51,1.13,1.13,1.13Z"/>
  <circle class="cls-1" cx="169.86" cy="60.08" r=".86"/>
  <circle class="cls-1" cx="179.84" cy="60.08" r=".55"/>
  <path class="cls-1" d="M189.83,60.33c.14,0,.25-.11,.25-.25s-.11-.25-.25-.25-.25,.11-.25,.25,.11,.25,.25,.25Z"/>
  <circle class="cls-1" cx="199.81" cy="60.08" r=".03"/>
  <path class="cls-1" d="M.19,70.11s.06-.02,.06-.06-.02-.06-.06-.06-.06,.02-.06,.06,.02,.06,.06,.06Z"/>
  <path class="cls-1" d="M10.17,70.42c.2,0,.36-.16,.36-.36s-.16-.36-.36-.36-.36,.16-.36,.36,.16,.36,.36,.36Z"/>
  <circle class="cls-1" cx="20.15" cy="70.06" r=".69"/>
  <circle class="cls-1" cx="30.14" cy="70.06" r="1"/>
  <path class="cls-1" d="M40.12,71.36c.72,0,1.3-.58,1.3-1.3s-.58-1.3-1.3-1.3-1.3,.58-1.3,1.3,.58,1.3,1.3,1.3Z"/>
  <path class="cls-1" d="M50.1,71.66c.89,0,1.61-.72,1.61-1.61s-.72-1.61-1.61-1.61-1.61,.72-1.61,1.61,.72,1.61,1.61,1.61Z"/>
  <path class="cls-1" d="M60.08,71.94c1.04,0,1.88-.84,1.88-1.88s-.84-1.88-1.88-1.88-1.88,.84-1.88,1.88,.84,1.88,1.88,1.88Z"/>
  <circle class="cls-1" cx="70.06" cy="70.06" r="2.13"/>
  <circle class="cls-1" cx="80.04" cy="70.06" r="2.35"/>
  <path class="cls-1" d="M90.02,72.55c1.38,0,2.49-1.12,2.49-2.49s-1.12-2.49-2.49-2.49-2.49,1.12-2.49,2.49,1.12,2.49,2.49,2.49Z"/>
  <circle class="cls-1" cx="100" cy="70.06" r="2.57"/>
  <path class="cls-1" d="M109.98,72.58c1.39,0,2.52-1.13,2.52-2.52s-1.13-2.52-2.52-2.52-2.52,1.13-2.52,2.52,1.13,2.52,2.52,2.52Z"/>
  <path class="cls-1" d="M119.96,72.44c1.31,0,2.38-1.07,2.38-2.38s-1.07-2.38-2.38-2.38-2.38,1.07-2.38,2.38,1.07,2.38,2.38,2.38Z"/>
  <path class="cls-1" d="M129.94,72.22c1.19,0,2.16-.97,2.16-2.16s-.97-2.16-2.16-2.16-2.16,.97-2.16,2.16,.97,2.16,2.16,2.16Z"/>
  <circle class="cls-1" cx="139.92" cy="70.06" r="1.91"/>
  <path class="cls-1" d="M149.9,71.69c.9,0,1.63-.73,1.63-1.63s-.73-1.63-1.63-1.63-1.63,.73-1.63,1.63,.73,1.63,1.63,1.63Z"/>
  <path class="cls-1" d="M159.88,71.39c.73,0,1.33-.59,1.33-1.33s-.59-1.33-1.33-1.33-1.33,.59-1.33,1.33,.59,1.33,1.33,1.33Z"/>
  <circle class="cls-1" cx="169.86" cy="70.06" r="1.02"/>
  <circle class="cls-1" cx="179.84" cy="70.06" r=".69"/>
  <path class="cls-1" d="M189.83,70.45c.21,0,.39-.17,.39-.39s-.17-.39-.39-.39-.39,.17-.39,.39,.17,.39,.39,.39Z"/>
  <path class="cls-1" d="M199.81,70.14s.08-.04,.08-.08-.04-.08-.08-.08-.08,.04-.08,.08,.04,.08,.08,.08Z"/>
  <path class="cls-1" d="M.19,80.18c.08,0,.14-.06,.14-.14s-.06-.14-.14-.14-.14,.06-.14,.14,.06,.14,.14,.14Z"/>
  <circle class="cls-1" cx="10.17" cy="80.04" r=".44"/>
  <circle class="cls-1" cx="20.15" cy="80.04" r=".77"/>
  <circle class="cls-1" cx="30.14" cy="80.04" r="1.11"/>
  <path class="cls-1" d="M40.12,81.48c.79,0,1.44-.64,1.44-1.44s-.64-1.44-1.44-1.44-1.44,.64-1.44,1.44,.64,1.44,1.44,1.44Z"/>
  <path class="cls-1" d="M50.1,81.78c.96,0,1.74-.78,1.74-1.74s-.78-1.74-1.74-1.74-1.74,.78-1.74,1.74,.78,1.74,1.74,1.74Z"/>
  <path class="cls-1" d="M60.08,82.09c1.13,0,2.05-.92,2.05-2.05s-.92-2.05-2.05-2.05-2.05,.92-2.05,2.05,.92,2.05,2.05,2.05Z"/>
  <circle class="cls-1" cx="70.06" cy="80.04" r="2.35"/>
  <path class="cls-1" d="M80.04,82.67c1.45,0,2.63-1.18,2.63-2.63s-1.18-2.63-2.63-2.63-2.63,1.18-2.63,2.63,1.18,2.63,2.63,2.63Z"/>
  <path class="cls-1" d="M90.02,82.86c1.56,0,2.82-1.26,2.82-2.82s-1.26-2.82-2.82-2.82-2.82,1.26-2.82,2.82,1.26,2.82,2.82,2.82Z"/>
  <circle class="cls-1" cx="100" cy="80.04" r="2.91"/>
  <path class="cls-1" d="M109.98,82.86c1.56,0,2.82-1.26,2.82-2.82s-1.26-2.82-2.82-2.82-2.82,1.26-2.82,2.82,1.26,2.82,2.82,2.82Z"/>
  <path class="cls-1" d="M119.96,82.67c1.45,0,2.63-1.18,2.63-2.63s-1.18-2.63-2.63-2.63-2.63,1.18-2.63,2.63,1.18,2.63,2.63,2.63Z"/>
  <path class="cls-1" d="M129.94,82.42c1.31,0,2.38-1.07,2.38-2.38s-1.07-2.38-2.38-2.38-2.38,1.07-2.38,2.38,1.07,2.38,2.38,2.38Z"/>
  <path class="cls-1" d="M139.92,82.11c1.15,0,2.08-.93,2.08-2.08s-.93-2.08-2.08-2.08-2.08,.93-2.08,2.08,.93,2.08,2.08,2.08Z"/>
  <path class="cls-1" d="M149.9,81.81c.98,0,1.77-.79,1.77-1.77s-.79-1.77-1.77-1.77-1.77,.79-1.77,1.77,.79,1.77,1.77,1.77Z"/>
  <path class="cls-1" d="M159.88,81.48c.79,0,1.44-.64,1.44-1.44s-.64-1.44-1.44-1.44-1.44,.64-1.44,1.44,.64,1.44,1.44,1.44Z"/>
  <path class="cls-1" d="M169.86,81.17c.63,0,1.13-.51,1.13-1.13s-.51-1.13-1.13-1.13-1.13,.51-1.13,1.13,.51,1.13,1.13,1.13Z"/>
  <path class="cls-1" d="M179.84,80.84c.44,0,.8-.36,.8-.8s-.36-.8-.8-.8-.8,.36-.8,.8,.36,.8,.8,.8Z"/>
  <path class="cls-1" d="M189.83,80.51c.26,0,.47-.21,.47-.47s-.21-.47-.47-.47-.47,.21-.47,.47,.21,.47,.47,.47Z"/>
  <path class="cls-1" d="M199.81,80.18c.08,0,.14-.06,.14-.14s-.06-.14-.14-.14-.14,.06-.14,.14,.06,.14,.14,.14Z"/>
  <path class="cls-1" d="M.19,90.19c.09,0,.17-.07,.17-.17s-.07-.17-.17-.17-.17,.07-.17,.17,.07,.17,.17,.17Z"/>
  <path class="cls-1" d="M10.17,90.52c.28,0,.5-.22,.5-.5s-.22-.5-.5-.5-.5,.22-.5,.5,.22,.5,.5,.5Z"/>
  <circle class="cls-1" cx="20.15" cy="90.02" r=".86"/>
  <path class="cls-1" d="M30.14,91.21c.66,0,1.19-.53,1.19-1.19s-.53-1.19-1.19-1.19-1.19,.53-1.19,1.19,.53,1.19,1.19,1.19Z"/>
  <path class="cls-1" d="M40.12,91.54c.84,0,1.52-.68,1.52-1.52s-.68-1.52-1.52-1.52-1.52,.68-1.52,1.52,.68,1.52,1.52,1.52Z"/>
  <circle class="cls-1" cx="50.1" cy="90.02" r="1.85"/>
  <path class="cls-1" d="M60.08,92.21c1.21,0,2.19-.98,2.19-2.19s-.98-2.19-2.19-2.19-2.19,.98-2.19,2.19,.98,2.19,2.19,2.19Z"/>
  <path class="cls-1" d="M70.06,92.51c1.38,0,2.49-1.12,2.49-2.49s-1.12-2.49-2.49-2.49-2.49,1.12-2.49,2.49,1.12,2.49,2.49,2.49Z"/>
  <circle class="cls-1" cx="80.04" cy="90.02" r="2.82"/>
  <path class="cls-1" d="M90.02,93.12c1.71,0,3.1-1.39,3.1-3.1s-1.39-3.1-3.1-3.1-3.1,1.39-3.1,3.1,1.39,3.1,3.1,3.1Z"/>
  <circle class="cls-1" cx="100" cy="90.02" r="3.24"/>
  <circle class="cls-1" cx="109.98" cy="90.02" r="3.1"/>
  <path class="cls-1" d="M119.96,92.87c1.57,0,2.85-1.28,2.85-2.85s-1.28-2.85-2.85-2.85-2.85,1.28-2.85,2.85,1.28,2.85,2.85,2.85Z"/>
  <path class="cls-1" d="M129.94,92.54c1.39,0,2.52-1.13,2.52-2.52s-1.13-2.52-2.52-2.52-2.52,1.13-2.52,2.52,1.13,2.52,2.52,2.52Z"/>
  <circle class="cls-1" cx="139.92" cy="90.02" r="2.21"/>
  <circle class="cls-1" cx="149.9" cy="90.02" r="1.88"/>
  <path class="cls-1" d="M159.88,91.57c.86,0,1.55-.69,1.55-1.55s-.69-1.55-1.55-1.55-1.55,.69-1.55,1.55,.69,1.55,1.55,1.55Z"/>
  <circle class="cls-1" cx="169.86" cy="90.02" r="1.22"/>
  <path class="cls-1" d="M179.84,90.88c.47,0,.86-.38,.86-.86s-.38-.86-.86-.86-.86,.38-.86,.86,.38,.86,.86,.86Z"/>
  <path class="cls-1" d="M189.83,90.55c.29,0,.53-.24,.53-.53s-.24-.53-.53-.53-.53,.24-.53,.53,.24,.53,.53,.53Z"/>
  <circle class="cls-1" cx="199.81" cy="90.02" r=".19"/>
  <path class="cls-1" d="M.19,100.19c.11,0,.19-.09,.19-.19s-.09-.19-.19-.19-.19,.09-.19,.19,.09,.19,.19,.19Z"/>
  <path class="cls-1" d="M10.17,100.53c.29,0,.53-.24,.53-.53s-.24-.53-.53-.53-.53,.24-.53,.53,.24,.53,.53,.53Z"/>
  <circle class="cls-1" cx="20.15" cy="100" r=".89"/>
  <path class="cls-1" d="M30.14,101.22c.67,0,1.22-.55,1.22-1.22s-.55-1.22-1.22-1.22-1.22,.55-1.22,1.22,.55,1.22,1.22,1.22Z"/>
  <circle class="cls-1" cx="40.12" cy="100" r="1.55"/>
  <circle class="cls-1" cx="50.1" cy="100" r="1.88"/>
  <path class="cls-1" d="M60.08,102.21c1.22,0,2.21-.99,2.21-2.21s-.99-2.21-2.21-2.21-2.21,.99-2.21,2.21,.99,2.21,2.21,2.21Z"/>
  <circle class="cls-1" cx="70.06" cy="100" r="2.57"/>
  <circle class="cls-1" cx="80.04" cy="100" r="2.91"/>
  <circle class="cls-1" cx="90.02" cy="100" r="3.24"/>
  <circle class="cls-1" cx="100" cy="100" r="3.46"/>
  <circle class="cls-1" cx="109.98" cy="100" r="3.24"/>
  <circle class="cls-1" cx="119.96" cy="100" r="2.93"/>
  <circle class="cls-1" cx="129.94" cy="100" r="2.57"/>
  <circle class="cls-1" cx="139.92" cy="100" r="2.24"/>
  <circle class="cls-1" cx="149.9" cy="100" r="1.91"/>
  <path class="cls-1" d="M159.88,101.58c.87,0,1.58-.71,1.58-1.58s-.71-1.58-1.58-1.58-1.58,.71-1.58,1.58,.71,1.58,1.58,1.58Z"/>
  <circle class="cls-1" cx="169.86" cy="100" r="1.22"/>
  <circle class="cls-1" cx="179.84" cy="100" r=".89"/>
  <path class="cls-1" d="M189.83,100.55c.31,0,.55-.25,.55-.55s-.25-.55-.55-.55-.55,.25-.55,.55,.25,.55,.55,.55Z"/>
  <path class="cls-1" d="M199.81,100.19c.11,0,.19-.09,.19-.19s-.09-.19-.19-.19-.19,.09-.19,.19,.09,.19,.19,.19Z"/>
  <path class="cls-1" d="M.19,110.15c.09,0,.17-.07,.17-.17s-.07-.17-.17-.17-.17,.07-.17,.17,.07,.17,.17,.17Z"/>
  <path class="cls-1" d="M10.17,110.48c.28,0,.5-.22,.5-.5s-.22-.5-.5-.5-.5,.22-.5,.5,.22,.5,.5,.5Z"/>
  <path class="cls-1" d="M20.15,110.84c.47,0,.86-.38,.86-.86s-.38-.86-.86-.86-.86,.38-.86,.86,.38,.86,.86,.86Z"/>
  <path class="cls-1" d="M30.14,111.17c.66,0,1.19-.53,1.19-1.19s-.53-1.19-1.19-1.19-1.19,.53-1.19,1.19,.53,1.19,1.19,1.19Z"/>
  <path class="cls-1" d="M40.12,111.5c.84,0,1.52-.68,1.52-1.52s-.68-1.52-1.52-1.52-1.52,.68-1.52,1.52,.68,1.52,1.52,1.52Z"/>
  <path class="cls-1" d="M50.1,111.83c1.02,0,1.85-.83,1.85-1.85s-.83-1.85-1.85-1.85-1.85,.83-1.85,1.85,.83,1.85,1.85,1.85Z"/>
  <path class="cls-1" d="M60.08,112.17c1.21,0,2.19-.98,2.19-2.19s-.98-2.19-2.19-2.19-2.19,.98-2.19,2.19,.98,2.19,2.19,2.19Z"/>
  <path class="cls-1" d="M70.06,112.5c1.39,0,2.52-1.13,2.52-2.52s-1.13-2.52-2.52-2.52-2.52,1.13-2.52,2.52,1.13,2.52,2.52,2.52Z"/>
  <path class="cls-1" d="M80.04,112.8c1.56,0,2.82-1.26,2.82-2.82s-1.26-2.82-2.82-2.82-2.82,1.26-2.82,2.82,1.26,2.82,2.82,2.82Z"/>
  <path class="cls-1" d="M90.02,113.08c1.71,0,3.1-1.39,3.1-3.1s-1.39-3.1-3.1-3.1-3.1,1.39-3.1,3.1,1.39,3.1,3.1,3.1Z"/>
  <circle class="cls-1" cx="100" cy="109.98" r="3.24"/>
  <circle class="cls-1" cx="109.98" cy="109.98" r="3.13"/>
  <path class="cls-1" d="M119.96,112.83c1.57,0,2.85-1.28,2.85-2.85s-1.28-2.85-2.85-2.85-2.85,1.28-2.85,2.85,1.28,2.85,2.85,2.85Z"/>
  <path class="cls-1" d="M129.94,112.5c1.39,0,2.52-1.13,2.52-2.52s-1.13-2.52-2.52-2.52-2.52,1.13-2.52,2.52,1.13,2.52,2.52,2.52Z"/>
  <path class="cls-1" d="M139.92,112.19c1.22,0,2.21-.99,2.21-2.21s-.99-2.21-2.21-2.21-2.21,.99-2.21,2.21,.99,2.21,2.21,2.21Z"/>
  <path class="cls-1" d="M149.9,111.86c1.04,0,1.88-.84,1.88-1.88s-.84-1.88-1.88-1.88-1.88,.84-1.88,1.88,.84,1.88,1.88,1.88Z"/>
  <path class="cls-1" d="M159.88,111.53c.86,0,1.55-.69,1.55-1.55s-.69-1.55-1.55-1.55-1.55,.69-1.55,1.55,.69,1.55,1.55,1.55Z"/>
  <path class="cls-1" d="M169.86,111.2c.67,0,1.22-.55,1.22-1.22s-.55-1.22-1.22-1.22-1.22,.55-1.22,1.22,.55,1.22,1.22,1.22Z"/>
  <circle class="cls-1" cx="179.84" cy="109.98" r=".89"/>
  <path class="cls-1" d="M189.83,110.51c.29,0,.53-.24,.53-.53s-.24-.53-.53-.53-.53,.24-.53,.53,.24,.53,.53,.53Z"/>
  <path class="cls-1" d="M199.81,110.17c.11,0,.19-.09,.19-.19s-.09-.19-.19-.19-.19,.09-.19,.19,.09,.19,.19,.19Z"/>
  <path class="cls-1" d="M.19,120.1c.08,0,.14-.06,.14-.14s-.06-.14-.14-.14-.14,.06-.14,.14,.06,.14,.14,.14Z"/>
  <circle class="cls-1" cx="10.17" cy="119.96" r=".44"/>
  <circle class="cls-1" cx="20.15" cy="119.96" r=".8"/>
  <circle class="cls-1" cx="30.14" cy="119.96" r="1.11"/>
  <circle class="cls-1" cx="40.12" cy="119.96" r="1.44"/>
  <circle class="cls-1" cx="50.1" cy="119.96" r="1.77"/>
  <path class="cls-1" d="M60.08,122.04c1.15,0,2.08-.93,2.08-2.08s-.93-2.08-2.08-2.08-2.08,.93-2.08,2.08,.93,2.08,2.08,2.08Z"/>
  <path class="cls-1" d="M70.06,122.34c1.31,0,2.38-1.07,2.38-2.38s-1.07-2.38-2.38-2.38-2.38,1.07-2.38,2.38,1.07,2.38,2.38,2.38Z"/>
  <path class="cls-1" d="M80.04,122.59c1.45,0,2.63-1.18,2.63-2.63s-1.18-2.63-2.63-2.63-2.63,1.18-2.63,2.63,1.18,2.63,2.63,2.63Z"/>
  <path class="cls-1" d="M90.02,122.81c1.57,0,2.85-1.28,2.85-2.85s-1.28-2.85-2.85-2.85-2.85,1.28-2.85,2.85,1.28,2.85,2.85,2.85Z"/>
  <path class="cls-1" d="M100,122.89c1.62,0,2.93-1.31,2.93-2.93s-1.31-2.93-2.93-2.93-2.93,1.31-2.93,2.93,1.31,2.93,2.93,2.93Z"/>
  <path class="cls-1" d="M109.98,122.81c1.57,0,2.85-1.28,2.85-2.85s-1.28-2.85-2.85-2.85-2.85,1.28-2.85,2.85,1.28,2.85,2.85,2.85Z"/>
  <path class="cls-1" d="M119.96,122.62c1.47,0,2.66-1.19,2.66-2.66s-1.19-2.66-2.66-2.66-2.66,1.19-2.66,2.66,1.19,2.66,2.66,2.66Z"/>
  <path class="cls-1" d="M129.94,122.34c1.31,0,2.38-1.07,2.38-2.38s-1.07-2.38-2.38-2.38-2.38,1.07-2.38,2.38,1.07,2.38,2.38,2.38Z"/>
  <circle class="cls-1" cx="139.92" cy="119.96" r="2.1"/>
  <circle class="cls-1" cx="149.9" cy="119.96" r="1.77"/>
  <path class="cls-1" d="M159.88,121.43c.81,0,1.47-.66,1.47-1.47s-.66-1.47-1.47-1.47-1.47,.66-1.47,1.47,.66,1.47,1.47,1.47Z"/>
  <circle class="cls-1" cx="169.86" cy="119.96" r="1.13"/>
  <circle class="cls-1" cx="179.84" cy="119.96" r=".8"/>
  <path class="cls-1" d="M189.83,120.43c.26,0,.47-.21,.47-.47s-.21-.47-.47-.47-.47,.21-.47,.47,.21,.47,.47,.47Z"/>
  <path class="cls-1" d="M199.81,120.13c.09,0,.17-.07,.17-.17s-.07-.17-.17-.17-.17,.07-.17,.17,.07,.17,.17,.17Z"/>
  <path class="cls-1" d="M.19,130.02s.08-.04,.08-.08-.04-.08-.08-.08-.08,.04-.08,.08,.04,.08,.08,.08Z"/>
  <circle class="cls-1" cx="10.17" cy="129.94" r=".36"/>
  <circle class="cls-1" cx="20.15" cy="129.94" r=".69"/>
  <circle class="cls-1" cx="30.14" cy="129.94" r="1"/>
  <path class="cls-1" d="M40.12,131.24c.72,0,1.3-.58,1.3-1.3s-.58-1.3-1.3-1.3-1.3,.58-1.3,1.3,.58,1.3,1.3,1.3Z"/>
  <path class="cls-1" d="M50.1,131.55c.89,0,1.61-.72,1.61-1.61s-.72-1.61-1.61-1.61-1.61,.72-1.61,1.61,.72,1.61,1.61,1.61Z"/>
  <path class="cls-1" d="M60.08,131.82c1.04,0,1.88-.84,1.88-1.88s-.84-1.88-1.88-1.88-1.88,.84-1.88,1.88,.84,1.88,1.88,1.88Z"/>
  <path class="cls-1" d="M70.06,132.1c1.19,0,2.16-.97,2.16-2.16s-.97-2.16-2.16-2.16-2.16,.97-2.16,2.16,.97,2.16,2.16,2.16Z"/>
  <path class="cls-1" d="M80.04,132.32c1.31,0,2.38-1.07,2.38-2.38s-1.07-2.38-2.38-2.38-2.38,1.07-2.38,2.38,1.07,2.38,2.38,2.38Z"/>
  <path class="cls-1" d="M90.02,132.46c1.39,0,2.52-1.13,2.52-2.52s-1.13-2.52-2.52-2.52-2.52,1.13-2.52,2.52,1.13,2.52,2.52,2.52Z"/>
  <circle class="cls-1" cx="100" cy="129.94" r="2.57"/>
  <path class="cls-1" d="M109.98,132.46c1.39,0,2.52-1.13,2.52-2.52s-1.13-2.52-2.52-2.52-2.52,1.13-2.52,2.52,1.13,2.52,2.52,2.52Z"/>
  <path class="cls-1" d="M119.96,132.32c1.31,0,2.38-1.07,2.38-2.38s-1.07-2.38-2.38-2.38-2.38,1.07-2.38,2.38,1.07,2.38,2.38,2.38Z"/>
  <path class="cls-1" d="M129.94,132.1c1.19,0,2.16-.97,2.16-2.16s-.97-2.16-2.16-2.16-2.16,.97-2.16,2.16,.97,2.16,2.16,2.16Z"/>
  <circle class="cls-1" cx="139.92" cy="129.94" r="1.91"/>
  <path class="cls-1" d="M149.9,131.57c.9,0,1.63-.73,1.63-1.63s-.73-1.63-1.63-1.63-1.63,.73-1.63,1.63,.73,1.63,1.63,1.63Z"/>
  <path class="cls-1" d="M159.88,131.27c.73,0,1.33-.59,1.33-1.33s-.59-1.33-1.33-1.33-1.33,.59-1.33,1.33,.59,1.33,1.33,1.33Z"/>
  <circle class="cls-1" cx="169.86" cy="129.94" r="1.02"/>
  <circle class="cls-1" cx="179.84" cy="129.94" r=".69"/>
  <path class="cls-1" d="M189.83,130.33c.21,0,.39-.17,.39-.39s-.17-.39-.39-.39-.39,.17-.39,.39,.17,.39,.39,.39Z"/>
  <circle class="cls-1" cx="199.81" cy="129.94" r=".08"/>
  <path class="cls-1" d="M.19,139.95s.03,0,.03-.03-.01-.03-.03-.03-.03,0-.03,.03,.01,.03,.03,.03Z"/>
  <path class="cls-1" d="M10.17,140.17c.14,0,.25-.11,.25-.25s-.11-.25-.25-.25-.25,.11-.25,.25,.11,.25,.25,.25Z"/>
  <circle class="cls-1" cx="20.15" cy="139.92" r=".55"/>
  <path class="cls-1" d="M30.14,140.78c.47,0,.86-.38,.86-.86s-.38-.86-.86-.86-.86,.38-.86,.86,.38,.86,.86,.86Z"/>
  <path class="cls-1" d="M40.12,141.06c.63,0,1.13-.51,1.13-1.13s-.51-1.13-1.13-1.13-1.13,.51-1.13,1.13,.51,1.13,1.13,1.13Z"/>
  <path class="cls-1" d="M50.1,141.33c.78,0,1.41-.63,1.41-1.41s-.63-1.41-1.41-1.41-1.41,.63-1.41,1.41,.63,1.41,1.41,1.41Z"/>
  <path class="cls-1" d="M60.08,141.61c.93,0,1.69-.76,1.69-1.69s-.76-1.69-1.69-1.69-1.69,.76-1.69,1.69,.76,1.69,1.69,1.69Z"/>
  <circle class="cls-1" cx="70.06" cy="139.92" r="1.91"/>
  <path class="cls-1" d="M80.04,142c1.15,0,2.08-.93,2.08-2.08s-.93-2.08-2.08-2.08-2.08,.93-2.08,2.08,.93,2.08,2.08,2.08Z"/>
  <path class="cls-1" d="M90.02,142.14c1.22,0,2.21-.99,2.21-2.21s-.99-2.21-2.21-2.21-2.21,.99-2.21,2.21,.99,2.21,2.21,2.21Z"/>
  <circle class="cls-1" cx="100" cy="139.92" r="2.24"/>
  <path class="cls-1" d="M109.98,142.14c1.22,0,2.21-.99,2.21-2.21s-.99-2.21-2.21-2.21-2.21,.99-2.21,2.21,.99,2.21,2.21,2.21Z"/>
  <path class="cls-1" d="M119.96,142.03c1.16,0,2.1-.94,2.1-2.1s-.94-2.1-2.1-2.1-2.1,.94-2.1,2.1,.94,2.1,2.1,2.1Z"/>
  <circle class="cls-1" cx="129.94" cy="139.92" r="1.91"/>
  <path class="cls-1" d="M139.92,141.61c.93,0,1.69-.76,1.69-1.69s-.76-1.69-1.69-1.69-1.69,.76-1.69,1.69,.76,1.69,1.69,1.69Z"/>
  <path class="cls-1" d="M149.9,141.36c.79,0,1.44-.64,1.44-1.44s-.64-1.44-1.44-1.44-1.44,.64-1.44,1.44,.64,1.44,1.44,1.44Z"/>
  <path class="cls-1" d="M159.88,141.08c.64,0,1.16-.52,1.16-1.16s-.52-1.16-1.16-1.16-1.16,.52-1.16,1.16,.52,1.16,1.16,1.16Z"/>
  <path class="cls-1" d="M169.86,140.81c.49,0,.89-.4,.89-.89s-.4-.89-.89-.89-.89,.4-.89,.89,.4,.89,.89,.89Z"/>
  <path class="cls-1" d="M179.84,140.5c.32,0,.58-.26,.58-.58s-.26-.58-.58-.58-.58,.26-.58,.58,.26,.58,.58,.58Z"/>
  <path class="cls-1" d="M189.83,140.2c.15,0,.28-.12,.28-.28s-.12-.28-.28-.28-.28,.12-.28,.28,.12,.28,.28,.28Z"/>
  <path class="cls-1" d="M199.81,139.95s.03,0,.03-.03,0-.03-.03-.03-.03,0-.03,.03,0,.03,.03,.03Z"/>
  <circle class="cls-1" cx="10.17" cy="149.9" r=".11"/>
  <path class="cls-1" d="M20.15,150.29c.21,0,.39-.17,.39-.39s-.17-.39-.39-.39-.39,.17-.39,.39,.17,.39,.39,.39Z"/>
  <circle class="cls-1" cx="30.14" cy="149.9" r=".66"/>
  <path class="cls-1" d="M40.12,150.84c.52,0,.94-.42,.94-.94s-.42-.94-.94-.94-.94,.42-.94,.94,.42,.94,.94,.94Z"/>
  <circle class="cls-1" cx="50.1" cy="149.9" r="1.19"/>
  <path class="cls-1" d="M60.08,151.31c.78,0,1.41-.63,1.41-1.41s-.63-1.41-1.41-1.41-1.41,.63-1.41,1.41,.63,1.41,1.41,1.41Z"/>
  <path class="cls-1" d="M70.06,151.54c.9,0,1.63-.73,1.63-1.63s-.73-1.63-1.63-1.63-1.63,.73-1.63,1.63,.73,1.63,1.63,1.63Z"/>
  <circle class="cls-1" cx="80.04" cy="149.9" r="1.77"/>
  <path class="cls-1" d="M90.02,151.79c1.04,0,1.88-.84,1.88-1.88s-.84-1.88-1.88-1.88-1.88,.84-1.88,1.88,.84,1.88,1.88,1.88Z"/>
  <circle class="cls-1" cx="100" cy="149.9" r="1.91"/>
  <circle class="cls-1" cx="109.98" cy="149.9" r="1.88"/>
  <circle class="cls-1" cx="119.96" cy="149.9" r="1.77"/>
  <path class="cls-1" d="M129.94,151.54c.9,0,1.63-.73,1.63-1.63s-.73-1.63-1.63-1.63-1.63,.73-1.63,1.63,.73,1.63,1.63,1.63Z"/>
  <circle class="cls-1" cx="139.92" cy="149.9" r="1.44"/>
  <circle class="cls-1" cx="149.9" cy="149.9" r="1.22"/>
  <path class="cls-1" d="M159.88,150.87c.53,0,.97-.43,.97-.97s-.43-.97-.97-.97-.97,.43-.97,.97,.43,.97,.97,.97Z"/>
  <circle class="cls-1" cx="169.86" cy="149.9" r=".69"/>
  <path class="cls-1" d="M179.84,150.32c.23,0,.42-.19,.42-.42s-.19-.42-.42-.42-.42,.19-.42,.42,.19,.42,.42,.42Z"/>
  <circle class="cls-1" cx="189.83" cy="149.9" r=".11"/>
  <path class="cls-1" d="M10.17,159.91s.03,0,.03-.03-.01-.03-.03-.03-.03,0-.03,.03,.01,.03,.03,.03Z"/>
  <circle class="cls-1" cx="20.15" cy="159.88" r=".19"/>
  <path class="cls-1" d="M30.14,160.35c.26,0,.47-.21,.47-.47s-.21-.47-.47-.47-.47,.21-.47,.47,.21,.47,.47,.47Z"/>
  <path class="cls-1" d="M40.12,160.6c.4,0,.72-.32,.72-.72s-.32-.72-.72-.72-.72,.32-.72,.72,.32,.72,.72,.72Z"/>
  <path class="cls-1" d="M50.1,160.82c.52,0,.94-.42,.94-.94s-.42-.94-.94-.94-.94,.42-.94,.94,.42,.94,.94,.94Z"/>
  <circle class="cls-1" cx="60.08" cy="159.88" r="1.13"/>
  <circle class="cls-1" cx="70.06" cy="159.88" r="1.33"/>
  <circle class="cls-1" cx="80.04" cy="159.88" r="1.44"/>
  <circle class="cls-1" cx="90.02" cy="159.88" r="1.55"/>
  <circle class="cls-1" cx="100" cy="159.88" r="1.58"/>
  <circle class="cls-1" cx="109.98" cy="159.88" r="1.55"/>
  <circle class="cls-1" cx="119.96" cy="159.88" r="1.47"/>
  <path class="cls-1" d="M129.94,161.21c.73,0,1.33-.59,1.33-1.33s-.59-1.33-1.33-1.33-1.33,.59-1.33,1.33,.59,1.33,1.33,1.33Z"/>
  <path class="cls-1" d="M139.92,161.05c.64,0,1.16-.52,1.16-1.16s-.52-1.16-1.16-1.16-1.16,.52-1.16,1.16,.52,1.16,1.16,1.16Z"/>
  <path class="cls-1" d="M149.9,160.85c.54,0,.97-.43,.97-.97s-.43-.97-.97-.97-.97,.43-.97,.97,.43,.97,.97,.97Z"/>
  <path class="cls-1" d="M159.88,160.6c.4,0,.72-.32,.72-.72s-.32-.72-.72-.72-.72,.32-.72,.72,.32,.72,.72,.72Z"/>
  <circle class="cls-1" cx="169.86" cy="159.88" r=".47"/>
  <circle class="cls-1" cx="179.84" cy="159.88" r=".22"/>
  <path class="cls-1" d="M189.83,159.91s.03,0,.03-.03,0-.03-.03-.03-.03,0-.03,.03,0,.03,.03,.03Z"/>
  <path class="cls-1" d="M20.15,169.89s.03,0,.03-.03-.01-.03-.03-.03-.03,0-.03,.03,.01,.03,.03,.03Z"/>
  <path class="cls-1" d="M30.14,170.11c.14,0,.25-.11,.25-.25s-.11-.25-.25-.25-.25,.11-.25,.25,.11,.25,.25,.25Z"/>
  <path class="cls-1" d="M40.12,170.33c.26,0,.47-.21,.47-.47s-.21-.47-.47-.47-.47,.21-.47,.47,.21,.47,.47,.47Z"/>
  <path class="cls-1" d="M50.1,170.53c.37,0,.66-.3,.66-.66s-.3-.66-.66-.66-.66,.3-.66,.66,.3,.66,.66,.66Z"/>
  <path class="cls-1" d="M60.08,170.72c.47,0,.86-.38,.86-.86s-.38-.86-.86-.86-.86,.38-.86,.86,.38,.86,.86,.86Z"/>
  <path class="cls-1" d="M70.06,170.89c.57,0,1.02-.46,1.02-1.02s-.46-1.02-1.02-1.02-1.02,.46-1.02,1.02,.46,1.02,1.02,1.02Z"/>
  <path class="cls-1" d="M80.04,171c.63,0,1.13-.51,1.13-1.13s-.51-1.13-1.13-1.13-1.13,.51-1.13,1.13,.51,1.13,1.13,1.13Z"/>
  <path class="cls-1" d="M90.02,171.05c.66,0,1.19-.53,1.19-1.19s-.53-1.19-1.19-1.19-1.19,.53-1.19,1.19,.53,1.19,1.19,1.19Z"/>
  <path class="cls-1" d="M100,171.08c.67,0,1.22-.55,1.22-1.22s-.55-1.22-1.22-1.22-1.22,.55-1.22,1.22,.55,1.22,1.22,1.22Z"/>
  <path class="cls-1" d="M109.98,171.08c.67,0,1.22-.55,1.22-1.22s-.55-1.22-1.22-1.22-1.22,.55-1.22,1.22,.55,1.22,1.22,1.22Z"/>
  <path class="cls-1" d="M119.96,171c.63,0,1.13-.51,1.13-1.13s-.51-1.13-1.13-1.13-1.13,.51-1.13,1.13,.51,1.13,1.13,1.13Z"/>
  <path class="cls-1" d="M129.94,170.89c.57,0,1.02-.46,1.02-1.02s-.46-1.02-1.02-1.02-1.02,.46-1.02,1.02,.46,1.02,1.02,1.02Z"/>
  <path class="cls-1" d="M139.92,170.75c.49,0,.89-.4,.89-.89s-.4-.89-.89-.89-.89,.4-.89,.89,.4,.89,.89,.89Z"/>
  <path class="cls-1" d="M149.9,170.56c.38,0,.69-.31,.69-.69s-.31-.69-.69-.69-.69,.31-.69,.69,.31,.69,.69,.69Z"/>
  <path class="cls-1" d="M159.88,170.33c.26,0,.47-.21,.47-.47s-.21-.47-.47-.47-.47,.21-.47,.47,.21,.47,.47,.47Z"/>
  <path class="cls-1" d="M169.86,170.11c.14,0,.25-.11,.25-.25s-.11-.25-.25-.25-.25,.11-.25,.25,.11,.25,.25,.25Z"/>
  <path class="cls-1" d="M179.84,169.92s.06-.02,.06-.06-.02-.06-.06-.06-.06,.02-.06,.06,.02,.06,.06,.06Z"/>
  <path class="cls-1" d="M30.14,179.87s.03,0,.03-.03-.01-.03-.03-.03-.03,0-.03,.03,.01,.03,.03,.03Z"/>
  <path class="cls-1" d="M40.12,180.04c.11,0,.19-.09,.19-.19s-.09-.19-.19-.19-.19,.09-.19,.19,.09,.19,.19,.19Z"/>
  <path class="cls-1" d="M50.1,180.23c.21,0,.39-.17,.39-.39s-.17-.39-.39-.39-.39,.17-.39,.39,.17,.39,.39,.39Z"/>
  <circle class="cls-1" cx="60.08" cy="179.85" r=".55"/>
  <path class="cls-1" d="M70.06,180.54c.38,0,.69-.31,.69-.69s-.31-.69-.69-.69-.69,.31-.69,.69,.31,.69,.69,.69Z"/>
  <circle class="cls-1" cx="80.04" cy="179.85" r=".8"/>
  <path class="cls-1" d="M90.02,180.7c.47,0,.86-.38,.86-.86s-.38-.86-.86-.86-.86,.38-.86,.86,.38,.86,.86,.86Z"/>
  <circle class="cls-1" cx="100" cy="179.85" r=".89"/>
  <circle class="cls-1" cx="109.98" cy="179.85" r=".89"/>
  <circle class="cls-1" cx="119.96" cy="179.85" r=".8"/>
  <path class="cls-1" d="M129.94,180.54c.38,0,.69-.31,.69-.69s-.31-.69-.69-.69-.69,.31-.69,.69,.31,.69,.69,.69Z"/>
  <circle class="cls-1" cx="139.92" cy="179.85" r=".58"/>
  <path class="cls-1" d="M149.9,180.26c.23,0,.42-.19,.42-.42s-.19-.42-.42-.42-.42,.19-.42,.42,.19,.42,.42,.42Z"/>
  <circle class="cls-1" cx="159.88" cy="179.85" r=".22"/>
  <path class="cls-1" d="M169.86,179.9s.06-.02,.06-.06-.02-.06-.06-.06-.06,.02-.06,.06,.02,.06,.06,.06Z"/>
  <path class="cls-1" d="M40.12,189.85s.03,0,.03-.03,0-.03-.03-.03-.03,0-.03,.03,0,.03,.03,.03Z"/>
  <circle class="cls-1" cx="50.1" cy="189.83" r=".11"/>
  <path class="cls-1" d="M60.08,190.07c.14,0,.25-.11,.25-.25s-.11-.25-.25-.25-.25,.11-.25,.25,.11,.25,.25,.25Z"/>
  <path class="cls-1" d="M70.06,190.21c.21,0,.39-.17,.39-.39s-.17-.39-.39-.39-.39,.17-.39,.39,.17,.39,.39,.39Z"/>
  <circle class="cls-1" cx="80.04" cy="189.83" r=".47"/>
  <path class="cls-1" d="M90.02,190.35c.29,0,.53-.24,.53-.53s-.24-.53-.53-.53-.53,.24-.53,.53,.24,.53,.53,.53Z"/>
  <circle class="cls-1" cx="100" cy="189.83" r=".55"/>
  <circle class="cls-1" cx="109.98" cy="189.83" r=".53"/>
  <circle class="cls-1" cx="119.96" cy="189.83" r=".47"/>
  <path class="cls-1" d="M129.94,190.21c.21,0,.39-.17,.39-.39s-.17-.39-.39-.39-.39,.17-.39,.39,.17,.39,.39,.39Z"/>
  <path class="cls-1" d="M139.92,190.1c.15,0,.28-.12,.28-.28s-.12-.28-.28-.28-.28,.12-.28,.28,.12,.28,.28,.28Z"/>
  <circle class="cls-1" cx="149.9" cy="189.83" r=".11"/>
  <path class="cls-1" d="M159.88,189.85s.03,0,.03-.03,0-.03-.03-.03-.03,0-.03,.03,0,.03,.03,.03Z"/>
  <path class="cls-1" d="M60.08,199.83s.03,0,.03-.03,0-.03-.03-.03-.03,0-.03,.03,0,.03,.03,.03Z"/>
  <path class="cls-1" d="M70.06,199.89s.08-.04,.08-.08-.04-.08-.08-.08-.08,.04-.08,.08,.04,.08,.08,.08Z"/>
  <path class="cls-1" d="M80.04,199.94c.08,0,.14-.06,.14-.14s-.06-.14-.14-.14-.14,.06-.14,.14,.06,.14,.14,.14Z"/>
  <path class="cls-1" d="M90.02,200c.11,0,.19-.09,.19-.19s-.09-.19-.19-.19-.19,.09-.19,.19,.09,.19,.19,.19Z"/>
  <path class="cls-1" d="M100,200c.11,0,.19-.09,.19-.19s-.09-.19-.19-.19-.19,.09-.19,.19,.09,.19,.19,.19Z"/>
  <path class="cls-1" d="M109.98,200c.11,0,.19-.09,.19-.19s-.09-.19-.19-.19-.19,.09-.19,.19,.09,.19,.19,.19Z"/>
  <path class="cls-1" d="M119.96,199.97c.09,0,.17-.07,.17-.17s-.07-.17-.17-.17-.17,.07-.17,.17,.07,.17,.17,.17Z"/>
  <path class="cls-1" d="M129.94,199.89s.08-.04,.08-.08-.04-.08-.08-.08-.08,.04-.08,.08,.04,.08,.08,.08Z"/>
  <path class="cls-1" d="M139.92,199.83s.03,0,.03-.03,0-.03-.03-.03-.03,0-.03,.03,0,.03,.03,.03Z"/>
</svg>