<?xml version="1.0" encoding="UTF-8"?>
<svg id="Camada_1" data-name="Camada 1" xmlns="http://www.w3.org/2000/svg" viewBox="0 0 399.77 116.41">
  <defs>
    <style>
      .cls-1 {
        fill: #f5842b;
      }
    </style>
  </defs>
  <path class="cls-1" d="M99.2,11.3h0s-4.62,0-4.62,0v6.11c0,5.61-4.49,10.1-10.1,10.1s-10.1-4.49-10.1-10.1v-6.11h-30.06v6.11c0,5.61-4.49,10.1-10.1,10.1s-10.1-4.49-10.1-10.1v-6.11h-4.62C8.88,11.3,.15,20.04,.15,30.64V96.88c0,10.73,8.73,19.46,19.34,19.46H99.2c10.73,0,19.46-8.73,19.46-19.46V30.64c0-10.6-8.73-19.33-19.46-19.33Zm0,94.93H19.48c-5.11,0-9.23-4.12-9.23-9.36V46.86H108.55v50.02c0,5.11-4.12,9.36-9.36,9.36Z"/>
  <path class="cls-1" d="M34.2,22.41c2.74,0,5.11-2.24,5.11-5.11V5.19c0-2.74-2.24-5.11-5.11-5.11s-5.11,2.24-5.11,5.11v12.1c.13,2.87,2.37,5.11,5.11,5.11Z"/>
  <path class="cls-1" d="M84.6,22.41c2.74,0,5.11-2.24,5.11-5.11V5.19c0-2.74-2.25-5.11-5.12-5.11s-5.11,2.24-5.11,5.11v12.1c0,2.87,2.25,5.11,5.12,5.11Z"/>
  <path class="cls-1" d="M239.68,11.3h0s-4.62,0-4.62,0v6.11c0,5.61-4.49,10.1-10.1,10.1s-10.1-4.49-10.1-10.1v-6.11h-30.06v6.11c0,5.61-4.49,10.1-10.1,10.1s-10.1-4.49-10.1-10.1v-6.11h-4.62c-10.6,0-19.34,8.73-19.34,19.34V96.88c0,10.73,8.73,19.46,19.34,19.46h79.71c10.73,0,19.46-8.73,19.46-19.46V30.64c0-10.6-8.73-19.33-19.46-19.33Zm0,94.93h-79.71c-5.11,0-9.23-4.12-9.23-9.36V46.86h98.3v50.02c0,5.11-4.12,9.36-9.36,9.36Z"/>
  <path class="cls-1" d="M174.69,22.41c2.74,0,5.11-2.24,5.11-5.11V5.19c0-2.74-2.24-5.11-5.11-5.11s-5.11,2.24-5.11,5.11v12.1c.13,2.87,2.37,5.11,5.11,5.11Z"/>
  <path class="cls-1" d="M225.08,22.41c2.74,0,5.11-2.24,5.11-5.11V5.19c0-2.74-2.25-5.11-5.12-5.11s-5.11,2.24-5.11,5.11v12.1c0,2.87,2.25,5.11,5.12,5.11Z"/>
  <path class="cls-1" d="M380.16,11.3h0s-4.62,0-4.62,0v6.11c0,5.61-4.49,10.1-10.1,10.1s-10.1-4.49-10.1-10.1v-6.11h-30.06v6.11c0,5.61-4.49,10.1-10.1,10.1s-10.1-4.49-10.1-10.1v-6.11h-4.62c-10.6,0-19.34,8.73-19.34,19.34V96.88c0,10.73,8.73,19.46,19.34,19.46h79.71c10.73,0,19.46-8.73,19.46-19.46V30.64c0-10.6-8.73-19.33-19.46-19.33Zm0,94.93h-79.71c-5.11,0-9.23-4.12-9.23-9.36V46.86h98.3v50.02c0,5.11-4.12,9.36-9.36,9.36Z"/>
  <path class="cls-1" d="M315.17,22.41c2.74,0,5.11-2.24,5.11-5.11V5.19c0-2.74-2.24-5.11-5.11-5.11s-5.11,2.24-5.11,5.11v12.1c.13,2.87,2.37,5.11,5.11,5.11Z"/>
  <path class="cls-1" d="M365.57,22.41c2.74,0,5.11-2.24,5.11-5.11V5.19c0-2.74-2.25-5.11-5.12-5.11s-5.11,2.24-5.11,5.11v12.1c0,2.87,2.25,5.11,5.12,5.11Z"/>
</svg>