<svg xmlns="http://www.w3.org/2000/svg" width="22" height="22" viewBox="0 0 22 22">
  <g id="_1161953_instagram_icon" data-name="1161953_instagram_icon" transform="translate(-3.4 -4.8)">
    <path id="Caminho_1" data-name="Caminho 1" d="M21.059,16.7a5.659,5.659,0,1,0,5.659,5.659A5.67,5.67,0,0,0,21.059,16.7Zm0,9.285a3.625,3.625,0,1,1,3.625-3.625A3.642,3.642,0,0,1,21.059,25.985Z" transform="translate(-6.659 -6.604)" fill="#363636"/>
    <circle id="Elipse_1" data-name="Elipse 1" cx="1.291" cy="1.291" r="1.291" transform="translate(19.006 8.657)" fill="#363636"/>
    <path id="Caminho_2" data-name="Caminho 2" d="M23.626,6.619A6.317,6.317,0,0,0,18.969,4.8H9.831A6.076,6.076,0,0,0,3.4,11.231v9.093A6.382,6.382,0,0,0,5.263,25.07,6.473,6.473,0,0,0,9.876,26.8h9.048a6.549,6.549,0,0,0,4.657-1.73,6.35,6.35,0,0,0,1.819-4.7V11.231A6.358,6.358,0,0,0,23.626,6.619Zm-.177,13.75a4.334,4.334,0,0,1-1.286,3.238,4.585,4.585,0,0,1-3.238,1.153H9.876a4.585,4.585,0,0,1-3.238-1.153,4.458,4.458,0,0,1-1.2-3.282V11.231a4.422,4.422,0,0,1,1.2-3.238A4.511,4.511,0,0,1,9.876,6.84h9.137a4.422,4.422,0,0,1,3.238,1.2,4.577,4.577,0,0,1,1.2,3.194v9.137Z" transform="translate(0 0)" fill="#363636"/>
  </g>
</svg>
