<?xml version="1.0" encoding="UTF-8"?>
<svg id="Camada_1" data-name="Camada 1" xmlns="http://www.w3.org/2000/svg" viewBox="0 0 459.38 106.34">
  <defs>
    <style>
      .cls-1 {
        fill: #fff;
      }
    </style>
  </defs>
  <path class="cls-1" d="M459.38,2.96l-2.69-2.96-97.22,88.16H35.59c-.16-9.68-8.05-17.49-17.77-17.49S.03,78.64,.03,88.46s7.96,17.79,17.79,17.79c8.55,0,15.69-6.04,17.4-14.09H361.02L459.38,2.96Z"/>
</svg>