<svg xmlns="http://www.w3.org/2000/svg" width="400.009" height="399.586" viewBox="0 0 400.009 399.586">
  <g id="network" transform="translate(-0.001 -0.004)">
    <path id="Caminho_5" data-name="Caminho 5" d="M400,82.34V76.9a22.6,22.6,0,0,0-.73-6.61A7.853,7.853,0,0,1,399.2,69a76.542,76.542,0,0,0-5.47-20.23C379.04,14.8,345.35-4.19,308.61.79A68.125,68.125,0,0,0,291,5.59a7.7,7.7,0,0,0-4.65,9.56c1.27,3.91,4.82,5.92,9.26,5.06a52.008,52.008,0,0,0,5.98-1.67,61.084,61.084,0,0,1,31.93-1.55A63.884,63.884,0,0,1,383.43,90.1a56.836,56.836,0,0,1-7.79,21.29c-5.22-12.75-14.43-20.18-27.16-23.53,5.16-9.09,5.26-18.47,4.07-28.05-1.6-12.85-12.16-24.26-25.15-27.09-13.47-2.93-28.43,3.3-34.87,14.99-7.25,13.16-6.42,26.61-.64,40.28-12.47,3.21-21.61,10.74-26.87,23.39a62.332,62.332,0,0,1-8.56-28.53c-.55-8.94,1.16-17.56,4-26.03,1.95-5.81-.74-10.44-6.06-11.1-4.15-.52-7.1,1.64-8.82,6.51-6.44,18.2-6.52,36.41.09,54.57.87,2.4.75,3.52-1.68,4.8q-32.85,17.37-65.55,35.06c-2.37,1.28-3.5.94-4.89-1.21a79.105,79.105,0,0,0-12.05-14.28,93.463,93.463,0,0,0-60.04-26.44,93.741,93.741,0,0,0-50.41,10.83c-4.54,2.37-5.98,7.24-3.6,11.19,2.43,4.03,6.59,4.72,12.4,1.88,18.41-9.01,37.47-10.62,57.24-5.37,48.59,12.91,73.03,70.67,48.16,114.58-6.8-16.7-19.46-26.11-37.08-29.73a41.762,41.762,0,0,0,7.56-22.74c.69-12.95-.99-25.06-9.93-35.38a40.413,40.413,0,0,0-42.14-12.06c-15.06,4.65-26.77,18.78-28.06,34.1-1.06,12.6-.71,24.98,7.14,36.05-8.41,2.08-16.07,4.76-22.6,10.05-6.41,5.19-10.94,11.75-14.45,19.73-10.16-20.36-12.41-40.67-6.01-61.89,1.55-5.13,4.14-9.78,5.94-14.78,1.17-3.23.66-6.18-1.93-8.53a7.242,7.242,0,0,0-7.93-1.54c-2.65,1.01-4.06,3.15-5.16,5.55-16.97,37.1-14,72.47,12.08,103.99,23.62,28.55,55.16,39,91.59,32.29,24.81-4.57,44.56-17.95,59.11-38.66,1.75-2.49,3.01-2.54,5.53-1.18q32.01,17.325,64.19,34.3c3.19,1.68,3.36,3.19,2.27,6.24-15.82,44.05,10.64,92.78,56.11,103.65,2.14.51,4.42.52,6.52,1.2a21.023,21.023,0,0,0,6.48,1.09h9.6a29.329,29.329,0,0,0,6.72-.86c2.68-.62,5.48-.66,8.16-1.4,32.54-9.06,52.46-29.98,59.7-63.01.19-.88.11-1.88.37-2.77a26.139,26.139,0,0,0,.98-7.31V315.4a34.805,34.805,0,0,0-1.09-8.43c-1.11-4.47-1.59-9.12-3.49-13.38-.32-.71-.51-1.47-.8-2.19-1.89-4.6-5.72-6.72-9.79-5.43-4.31,1.37-6.48,5.47-4.93,10.35a85.771,85.771,0,0,1,4.08,17.38,63.313,63.313,0,0,1-7.48,36.83c-.16.3-.51.49-.97.9-4.9-11.59-13.24-19.17-25.23-22.52-2.09-.58-1.33-1.45-.81-2.66,5.49-12.81,5.38-25.55-1.19-37.89-6.24-11.72-20.96-17.99-34.74-15.27-12.81,2.53-23.74,14.11-25.37,26.87-1.56,12.27-.79,18.04,3.89,28.37-12.63,3.31-21.86,10.73-27.04,23.56a60.9,60.9,0,0,1-8.58-28.87,63.781,63.781,0,0,1,56.23-66.45,62.256,62.256,0,0,1,26.52,2.42c1.61.5,3.21,1.07,4.85,1.45,4.55,1.05,8.56-.93,9.84-4.77,1.4-4.2-.51-8.11-5.03-9.98a63.588,63.588,0,0,0-17.28-4.52c-31.27-3.53-56.57,7.19-75.68,32.24-1.39,1.83-2.3,2.13-4.34,1.03q-33.045-17.835-66.22-35.43c-2.13-1.13-2.32-2.07-1.52-4.12q13.7-35.13-.02-70.31c-.82-2.1-.49-2.99,1.59-4.09q33.18-17.58,66.19-35.47c2.55-1.39,3.3-.19,4.53,1.42,17.23,22.63,40.11,33.62,68.5,32.52,36.45-1.41,67.89-29.45,74.03-65.48a25.137,25.137,0,0,1,.35-3.1,28.412,28.412,0,0,0,.99-8.06ZM76.54,160.84a24.459,24.459,0,0,1,25.92-7.99,24.048,24.048,0,0,1,17.39,21.17c.2,2.2.3,4.4.45,6.6.36,10.44-2.61,19.37-11.92,25.05-16.26,9.92-36.13-1.33-37.23-18.91-.57-9.14-1.01-18.2,5.39-25.92Zm74.32,96.15c-14.57,14.15-34.76,22.35-57.35,22.38-19.16-.4-37.66-7.63-53.23-22.24a4.983,4.983,0,0,1-1.63-4.44c.77-13.59,9.13-24.03,22.58-27.97,4.48-1.31,9.01-2.41,13.5-3.66a6.365,6.365,0,0,1,4.49.44,39.652,39.652,0,0,0,32.82-.06c.97-.42,1.89-.95,2.96-.64,7.68,2.25,15.86,3.1,22.85,7.33,9.53,5.76,14.05,14.55,14.59,25.55a4.056,4.056,0,0,1-1.59,3.31Zm152.38,51.39c0-10.46,4.09-17.12,12.04-19.56a17.074,17.074,0,0,1,22.11,15.07,59.53,59.53,0,0,1,.09,7.79c-.39,9.79-7.74,17-17.2,16.97-9.43-.03-16.68-7.32-17.03-17.14-.04-1.04,0-2.08,0-3.12Zm-24.9,56.99c.64-11.46,6.23-18.61,17.24-21.7,1.12-.31,2.27-.55,3.38-.92a17.512,17.512,0,0,1,12.17.03,26.564,26.564,0,0,0,20.11-.39,9.079,9.079,0,0,1,6.97-.57c3.46,1.09,7.04,1.82,10.44,3.06a21.572,21.572,0,0,1,13.72,21.88c-.15,1.74-1.22,2.44-2.32,3.31a63.9,63.9,0,0,1-39.16,13.91c-15.42-.26-28.79-4.81-40.54-14.06a4.763,4.763,0,0,1-2.02-4.57Zm25.2-303.45a17.047,17.047,0,0,1,33.79.94,42.671,42.671,0,0,1,.03,5.06c.52,5.82-.66,11.2-5,15.35-4.88,4.68-10.72,6.15-17.22,4.07-6.53-2.09-10.35-6.76-11.57-13.39a34.965,34.965,0,0,1-.02-12.03Zm58.84,64.06c-.08,1.89-1.11,2.73-2.34,3.7a63.719,63.719,0,0,1-39.57,13.9,64.639,64.639,0,0,1-39.71-13.73,5.583,5.583,0,0,1-2.41-5.53c.82-11.02,6.36-17.98,17.02-21.02,1.12-.32,2.26-.57,3.37-.93a18.579,18.579,0,0,1,12.69.09c6.89,2.51,14.07,1.88,20.91-.94a7.006,7.006,0,0,1,5.21-.28c3.2,1.04,6.54,1.62,9.74,2.66a21.722,21.722,0,0,1,15.09,22.09Z" fill="#fff"/>
    <path id="Caminho_6" data-name="Caminho 6" d="M33.8,145.74a8.124,8.124,0,0,0,7.69-7.81,7.984,7.984,0,0,0-7.73-7.72,7.7,7.7,0,0,0-7.8,7.53A7.972,7.972,0,0,0,33.8,145.74Z" fill="#fff"/>
    <path id="Caminho_7" data-name="Caminho 7" d="M269.53,36.52a8.1,8.1,0,0,0,7.79-7.67,8.069,8.069,0,0,0-7.58-7.86,7.938,7.938,0,0,0-7.93,7.45,7.954,7.954,0,0,0,7.72,8.09Z" fill="#fff"/>
    <path id="Caminho_8" data-name="Caminho 8" d="M363.37,269.18a8.112,8.112,0,0,0,7.7,7.77,8,8,0,0,0,7.85-7.98,7.918,7.918,0,0,0-7.85-7.54,8.025,8.025,0,0,0-7.7,7.74Z" fill="#fff"/>
  </g>
</svg>
