<svg xmlns="http://www.w3.org/2000/svg" width="434.82" height="128.105" viewBox="0 0 434.82 128.105">
  <g id="Grupo_1" data-name="Grupo 1" transform="translate(1837 -2279)">
    <g id="Grupo_1-2" data-name="Grupo 1">
      <g id="mais-horizontal-laranja" transform="translate(-1837.15 2352.485)">
        <path id="Caminho_1" data-name="Caminho 1" d="M31.75,31.74V54.62H23.04V31.74H.15V23.03H23.04V.41h8.71V23.03H54.5v8.71H31.75Z" fill="#f5842b"/>
        <path id="Caminho_2" data-name="Caminho 2" d="M126.9,31.74V54.62h-8.71V31.74H95.31V23.03h22.88V.41h8.71V23.03h22.75v8.71H126.9Z" fill="#f5842b"/>
        <path id="Caminho_3" data-name="Caminho 3" d="M222.06,31.74V54.62h-8.71V31.74H190.47V23.03h22.88V.41h8.71V23.03h22.75v8.71H222.06Z" fill="#f5842b"/>
        <path id="Caminho_4" data-name="Caminho 4" d="M317.22,31.74V54.62h-8.71V31.74H285.63V23.03h22.88V.41h8.71V23.03h22.75v8.71H317.22Z" fill="#f5842b"/>
      </g>
      <g id="mais-horizontal-laranja-2" data-name="mais-horizontal-laranja" transform="translate(-1742.15 2278.59)">
        <path id="Caminho_1-2" data-name="Caminho 1" d="M31.75,31.74V54.62H23.04V31.74H.15V23.03H23.04V.41h8.71V23.03H54.5v8.71H31.75Z" fill="#f5842b"/>
        <path id="Caminho_2-2" data-name="Caminho 2" d="M126.9,31.74V54.62h-8.71V31.74H95.31V23.03h22.88V.41h8.71V23.03h22.75v8.71H126.9Z" fill="#f5842b"/>
        <path id="Caminho_3-2" data-name="Caminho 3" d="M222.06,31.74V54.62h-8.71V31.74H190.47V23.03h22.88V.41h8.71V23.03h22.75v8.71H222.06Z" fill="#f5842b"/>
        <path id="Caminho_4-2" data-name="Caminho 4" d="M317.22,31.74V54.62h-8.71V31.74H285.63V23.03h22.88V.41h8.71V23.03h22.75v8.71H317.22Z" fill="#f5842b"/>
      </g>
    </g>
  </g>
</svg>
