<?xml version="1.0" encoding="UTF-8"?>
<svg id="Camada_1" data-name="Camada 1" xmlns="http://www.w3.org/2000/svg" viewBox="0 0 42.61 61.01">
  <defs>
    <style>
      .cls-1 {
        fill: #f5842b;
      }
    </style>
  </defs>
  <path class="cls-1" d="M21.31,0C9.51,0,0,9.61,0,21.31,0,25.71,1.31,29.91,3.81,33.51l8,13.9,7,12.1c.5,1,1.5,1.5,2.5,1.5h0c1,0,2-.5,2.5-1.4l15-26c2.5-3.6,3.8-7.8,3.8-12.2C42.61,9.61,33.11,0,21.31,0ZM11.01,21.31c0-5.7,4.6-10.3,10.3-10.3s10.3,4.6,10.3,10.3-4.6,10.3-10.3,10.3-10.3-4.6-10.3-10.3Z"/>
</svg>