<?xml version="1.0" encoding="UTF-8"?>
<svg id="Camada_1" data-name="Camada 1" xmlns="http://www.w3.org/2000/svg" viewBox="0 0 190.2 54.91">
  <polygon points="37.6 18.14 28.74 .21 19.9 18.15 .11 21.04 14.44 34.99 11.07 54.7 28.77 45.38 46.48 54.68 43.09 34.97 57.4 21 37.6 18.14"/>
  <polygon points="105.09 18.14 96.23 .21 87.39 18.15 67.6 21.04 81.93 34.99 78.56 54.7 96.26 45.38 113.97 54.68 110.57 34.97 124.89 21 105.09 18.14"/>
  <polygon points="190.09 21 170.3 18.14 161.43 .21 152.59 18.15 132.8 21.04 147.13 34.99 143.77 54.7 161.46 45.38 179.17 54.68 175.78 34.97 190.09 21"/>
</svg>