<?xml version="1.0" encoding="UTF-8"?>
<svg id="Camada_1" data-name="Camada 1" xmlns="http://www.w3.org/2000/svg" viewBox="0 0 391.68 565.64">
  <defs>
    <style>
      .cls-1 {
        fill: #0097a9;
      }
    </style>
  </defs>
  <path class="cls-1" d="M243.31,501.5c3.84,0,6.96-3.12,6.96-6.96s-3.12-6.96-6.96-6.96h-18.88c-3.95,0-6.92,3-6.92,6.97s2.98,6.96,6.92,6.96h18.88Z"/>
  <path class="cls-1" d="M263.49,487.57c-3.95,0-6.92,2.99-6.92,6.96s2.98,6.96,6.92,6.96h35.82c3.95,0,6.92-2.99,6.92-6.96s-2.98-6.96-6.92-6.96h-35.82Z"/>
  <path class="cls-1" d="M302.43,517.98h-75.59c-3.95,0-6.92,2.99-6.92,6.96s2.98,6.96,6.92,6.96h75.59c3.95,0,6.92-2.99,6.92-6.96s-2.98-6.96-6.92-6.96Z"/>
  <path class="cls-1" d="M260.02,471.08c3.95,0,6.92-2.99,6.92-6.96s-2.98-6.96-6.92-6.96h-38.01c-3.95,0-6.92,2.99-6.92,6.96s2.98,6.96,6.92,6.96h38.01Z"/>
  <path class="cls-1" d="M278.03,471.08h18.16c3.95,0,6.92-2.99,6.92-6.96s-2.98-6.96-6.92-6.96h-18.16c-3.95,0-6.92,2.99-6.92,6.96s2.98,6.96,6.92,6.96Z"/>
  <path class="cls-1" d="M147.03,487.56c-3.84,0-6.96,3.12-6.96,6.96s3.12,6.96,6.96,6.96h18.88c3.95,0,6.92-3,6.92-6.97s-2.98-6.96-6.92-6.96h-18.88Z"/>
  <path class="cls-1" d="M383.69,393.01h-27.29c.02-2.81,.05-5.62,.08-8.43,.18-17.98,.37-36.57-2.03-54.74-5.23-39.56-31.73-75.35-71.03-96.14-.54-3.22-2.08-6.11-4.66-8.79-4.24-4.39-11.3-7.64-21.58-12.08-2.02-.92-4.16-.95-6.06-.22-1.41-2.61-1.75-4.78-2.32-8.33-.1-.62-.2-1.27-.32-1.96,8.22-10.92,14.17-23.94,17.73-38.76,5.77-1.81,10.7-6.87,14.1-14.53,3.24-7.3,5.84-19.41,2.51-29.52-1.7-5.16-4.6-8.92-8.5-11.06,.6-2.55,1.3-5.05,1.99-7.49l.03-.1c2.7-9.58,4.27-17.82,3.79-29.24-.83-19.56-8.22-36.58-21.37-49.22C244,8.2,221.05,.06,195.8,.06s-48.2,8.14-62.97,22.33c-13.15,12.64-20.54,29.66-21.37,49.22-.49,11.43,1.09,19.66,3.8,29.31,.69,2.45,1.4,4.96,2,7.52-3.9,2.14-6.81,5.9-8.5,11.06-3.33,10.12-.73,22.23,2.52,29.52,3.42,7.71,8.4,12.78,14.2,14.56,3.56,14.82,9.52,27.85,17.75,38.77-.42,4.05-1.48,7.38-3.4,10.53-1.26-.26-2.59-.23-3.86,.15-.79,.23-1.59,.46-2.39,.69-3.13,.89-6.36,1.82-9.48,3.07-6.12,2.45-13.96,6.83-14.21,17.01-39.21,20.81-65.62,56.54-70.84,96.04-2.4,18.17-2.21,36.76-2.03,54.74,.03,2.81,.06,5.62,.08,8.43H8.01c-4.5,0-7.9,3.42-7.9,7.95,0,4.18,2.89,7.42,6.88,7.89l.14,.06H383.69c4.5,0,7.9-3.42,7.9-7.95s-3.4-7.95-7.9-7.95Zm-103.54-67.91v67.91H111.53v-67.91c0-4.5-3.42-7.9-7.95-7.9s-7.95,3.4-7.95,7.9v67.91H52.98c-.02-2.34-.05-4.69-.08-7.04-.22-17.9-.44-36.41,1.89-54.06,4.4-33.23,26.44-63.71,59.27-82.28,3.37,7.04,8.43,14.51,12.64,20.72,.73,1.08,1.44,2.12,2.11,3.12l.4,.6c1.28,1.91,2.46,3.67,3.2,4.79l.07,.1c2.53,3.61,6.52,8.37,11.78,7.96,5.82-.45,9.06-7,10.12-9.16,3.28-6.64,7.08-11.71,11.3-15.08,3.01-2.41,6.3-3.93,9.8-4.55,6.89,4.92,11.6,13.66,12.41,23.2v34.72c0,4.5,3.42,7.9,7.95,7.9s7.95-3.4,7.95-7.9v-34.35c1.85-9.99,6.96-18.4,14.5-23.85,3.74,.6,7.11,2.15,10.26,4.71,4.1,3.35,7.75,8.31,11.14,15.18,.22,.44,.43,.92,.66,1.42,1.09,2.43,2.45,5.46,5.1,7.21,4.04,2.66,7.33,1.67,9.37,.37,2.34-1.49,4.43-4.24,6.84-7.91,1.57-2.38,3.27-4.82,5.06-7.4,4.85-6.96,9.84-14.12,13.24-21.54,32.53,18.6,54.37,48.96,58.74,81.99,2.33,17.66,2.11,36.18,1.89,54.09-.03,2.34-.06,4.68-.08,7.01h-44.46v-67.91c0-4.5-3.42-7.9-7.95-7.9s-7.95,3.4-7.95,7.9Zm-145.73-95.06c2.9,4.51,6.9,8.8,11.95,12.79,3.54,2.8,7.08,5.04,10.24,6.79-.28,.21-.56,.43-.83,.65-5.45,4.36-9.06,9.86-12.24,14.71-.22,.34-.44,.67-.66,1.01-.01-.02-.03-.04-.04-.06-.28-.43-.55-.86-.85-1.3-5.48-8.17-12.3-18.35-14.63-24.16-2.71-6.77-.46-7.67,2.66-8.92,1.3-.52,2.75-1,4.4-1.5ZM263.94,83.07c-1.43-9.77-4.33-15.56-9.14-18.44-2.27-1.36-4.76-1.95-7.5-1.95-6.22,0-13.71,3.05-22.76,7.09-6.79,3.03-15.23,6.8-25.19,9.98l-.42,.14c-2.37,.77-4.12,1.25-5.41,1.55,1.05-3.24,.84-6.72-.68-9.46-1.73-3.12-4.95-4.95-8.85-5.03-4.26-.08-9.71,1.62-15.39,4.78-1.44,.8-2.16,.82-2.57,.77-.82-.11-2.33-.7-4.85-2.88-7.92-6.85-15.14-9.36-21.46-7.47-7.5,2.25-10.74,9.38-12.41,15.7-.06-1.81-.04-3.67,.04-5.62,.65-15.38,6.37-28.66,16.51-38.42,24.77-23.81,79.15-23.81,103.92,0,10.15,9.76,15.86,23.04,16.51,38.42,.17,4.03,.05,7.5-.34,10.82Zm-139.77,47.53c-.38,.36-.72,.75-1.01,1.18-.13-1.94-.07-3.84,.26-5.56,1.08,.48,2.31,.71,3.61,.68,4.51-.15,7.81-3.65,7.67-8.14-.13-3.9-.64-7.88-1.6-12.32,5.84-4.4,7.22-12.21,8.46-19.2l.11-.63c1.07-6.14,2.01-8.41,2.67-9.17,.62,.14,2.54,.82,6.44,4.19,4.47,3.87,8.78,6.03,13.17,6.61,3.78,.5,7.47-.17,11.26-2.06,.05,4.38,2.05,6.96,3.83,8.4,6.7,5.39,19.82,2,25.15,.3,10.76-3.45,19.66-7.42,26.82-10.61,1.39-.62,2.71-1.22,3.95-1.79,4.42-2.02,9.92-4.54,11.12-3.83,.32,.19,1.93,1.65,2.69,12.11,.2,2.91,1.77,5.29,4.29,6.52,2.48,1.21,5.53,1.06,7.88-.36-2.01,7.13-3.81,14.18-4.05,21.84-.14,4.48,3.16,7.98,7.67,8.13,1.31,.04,2.53-.2,3.61-.68,.32,1.68,.39,3.54,.27,5.44-1.35-1.9-3.56-3.13-6.19-3.23-1.99-.07-3.93,.54-5.42,1.75-1.73,1.4-2.73,3.47-2.82,5.8-.34,7.79-1.3,15.29-2.88,22.28-3.48,15.47-10.12,29.03-19.2,39.21-11.51,12.9-24.62,19.4-37.9,18.83-13.95-.61-27.2-8.83-38.33-23.76-10.84-14.55-17.08-34.1-18.05-56.54-.09-2.35-1.1-4.42-2.82-5.82-1.41-1.14-3.2-1.76-5.08-1.76-.11,0-.22,0-.34,0-2,.08-3.87,.85-5.26,2.17Zm71.54,102.07h.12c13.7,0,26.98-5.51,39.55-16.38,1.27,3.15,2.97,6.15,5.1,9.02-3.78,4.15-8.39,7.7-13.74,10.57-9.1,4.88-20.05,7.51-30.92,7.43-15.61-.13-28.93-4.48-39.61-12.93-2.14-1.69-4.01-3.44-5.59-5.21,2.25-2.92,4.04-5.94,5.39-9.12,12.6,11,25.93,16.59,39.7,16.62Zm70.93,7.95c-2.43,6.46-10.28,18.44-15.29,25.21-2.57-4.62-6.69-10.58-12.78-15.54-.7-.57-1.41-1.11-2.13-1.63,8.32-4.84,15.34-11.18,20.55-18.55,4.55,2.05,8.67,4.1,10.32,5.82,.22,.22,.79,.82-.66,4.69Z"/>
  <path class="cls-1" d="M84.98,531.9h79.69c3.95,0,6.92-2.99,6.92-6.96s-2.98-6.96-6.92-6.96H84.98c-3.95,0-6.92,2.99-6.92,6.96s2.98,6.96,6.92,6.96Z"/>
  <path class="cls-1" d="M130.32,471.08h38.01c3.95,0,6.92-3,6.92-6.97s-2.98-6.96-6.92-6.96h-38.01c-3.84,0-6.96,3.12-6.96,6.96s3.12,6.96,6.96,6.96Z"/>
  <path class="cls-1" d="M322.18,430.72c-.84-3.64-4.3-6.39-8.05-6.39H77.55c-3.72,0-7.04,2.69-7.89,6.39l-28.77,124.87c-.73,3.18,.3,5.33,1.3,6.58,1.62,2.03,4.35,3.15,7.68,3.15H342.29c3.06,0,5.73-1.15,7.32-3.15,1.43-1.79,1.9-4.12,1.34-6.58l-28.77-124.86Zm-118.39,118.68v-109.17h104.28l25.16,109.17H203.79Zm-15.9-109.17v109.17H58.62l25.16-109.17h104.12Z"/>
  <path class="cls-1" d="M90.16,469.88v1.21h22.16c3.84,0,6.96-3.12,6.96-6.96s-3.12-6.96-6.96-6.96h-18.16c-3.95,0-6.92,2.99-6.92,6.96,0,2.45,1.13,4.52,2.92,5.76Z"/>
  <path class="cls-1" d="M87.03,500.29v1.21h39.82c3.84,0,6.96-3.12,6.96-6.96s-3.12-6.96-6.96-6.96h-35.82c-3.95,0-6.92,2.99-6.92,6.96,0,2.45,1.13,4.52,2.92,5.76Z"/>
</svg>